<svg xmlns="http://www.w3.org/2000/svg" xmlns:xlink="http://www.w3.org/1999/xlink" width="137.642" height="50" viewBox="0 0 137.642 50">
  <defs>
    <clipPath id="clip-path">
      <rect id="Rettangolo_421" data-name="Rettangolo 421" width="136.642" height="50" fill="none"/>
    </clipPath>
  </defs>
  <g id="Logo-RegioneMarche" transform="translate(-244.322 -5356)">
    <rect id="Rettangolo_419" data-name="Rettangolo 419" width="136.765" height="50" transform="translate(244.322 5356)" fill="none"/>
    <g id="Raggruppa_573" data-name="Raggruppa 573" transform="translate(245.322 5356)">
      <g id="Raggruppa_572" data-name="Raggruppa 572" clip-path="url(#clip-path)">
        <path id="Tracciato_811" data-name="Tracciato 811" d="M21.151,23.244H16.567L13.1,16.8h-.038v6.441H9.377V6.509h5.5c2.8,0,4.918,1.575,4.918,5.149,0,2.308-1.09,4.3-3.1,4.721Zm-8.093-9.236h.356c1.2,0,2.554-.265,2.554-2.086s-1.352-2.086-2.554-2.086h-.356Z" transform="translate(-7.477 -5.19)" fill="#161615"/>
        <path id="Tracciato_812" data-name="Tracciato 812" d="M76.071,10.193v2.8H80.22V16.67H76.071v2.888h4.376v3.686H72.39V6.509h8.057v3.684Z" transform="translate(-57.723 -5.19)" fill="#161615"/>
        <path id="Tracciato_813" data-name="Tracciato 813" d="M134.679,11.711c-.039,2.438-.189,4.527-1.447,6.611a6.51,6.51,0,0,1-5.838,3.284c-4.452,0-7.549-3.571-7.549-8.83,0-5.436,3.116-9.012,7.678-9.012,2.912,0,5.164,1.556,6.385,4.685l-3.491,1.73c-.51-1.6-1.58-2.665-3.062-2.665-2.422,0-3.682,2.732-3.682,5.282,0,2.6,1.315,5.238,3.741,5.238a2.853,2.853,0,0,0,2.965-2.909h-3V11.711Z" transform="translate(-95.564 -3.002)" fill="#161615"/>
        <rect id="Rettangolo_420" data-name="Rettangolo 420" width="3.68" height="16.735" transform="translate(40.804 1.319)" fill="#161615"/>
        <path id="Tracciato_814" data-name="Tracciato 814" d="M243.562,12.375c0,5.42-3.285,9.231-7.83,9.231s-7.831-3.811-7.831-9.231c0-5.061,3.755-8.611,7.831-8.611s7.83,3.55,7.83,8.611m-11.829.023c0,2.886,1.8,4.995,4,4.995s4-2.109,4-4.995a4.018,4.018,0,1,0-8,0" transform="translate(-181.728 -3.001)" fill="#161615"/>
        <path id="Tracciato_815" data-name="Tracciato 815" d="M313.62,6.508H317.3l6.739,10.229h.041V6.508h3.675V23.244h-3.675L317.34,12.991H317.3V23.244H313.62Z" transform="translate(-250.078 -5.19)" fill="#161615"/>
        <path id="Tracciato_816" data-name="Tracciato 816" d="M398.948,10.193v2.8H403.1V16.67h-4.152v2.888h4.377v3.686h-8.057V6.509h8.057v3.684Z" transform="translate(-315.184 -5.19)" fill="#161615"/>
        <path id="Tracciato_817" data-name="Tracciato 817" d="M2.594,105.3H6.506l3.1,8.941,3.282-8.941h3.951l2.312,16.733H15.182L14.067,112.4h-.042l-3.665,9.633H8.778L5.27,112.4H5.229l-1.276,9.633H0Z" transform="translate(0 -83.966)" fill="#161615"/>
        <path id="Tracciato_818" data-name="Tracciato 818" d="M101.326,119.124l-1.053,2.909H96.056l5.877-16.733h4.339l5.756,16.733h-4.235l-.993-2.909Zm2.777-8.656h-.04L102.42,115.8h3.3Z" transform="translate(-76.594 -83.966)" fill="#161615"/>
        <path id="Tracciato_819" data-name="Tracciato 819" d="M193.7,122.033h-4.947L185,115.6h-.042v6.436H180.99V105.3h5.939c3.025,0,5.313,1.574,5.313,5.145,0,2.314-1.175,4.308-3.346,4.729Zm-8.74-9.231h.388c1.3,0,2.756-.267,2.756-2.089s-1.461-2.085-2.756-2.085h-.388Z" transform="translate(-144.32 -83.966)" fill="#161615"/>
        <path id="Tracciato_820" data-name="Tracciato 820" d="M256.928,109.172a4.185,4.185,0,0,0-3.488-1.845c-2.435,0-4.076,2.043-4.076,4.637,0,2.641,1.664,4.549,4.136,4.549a4.425,4.425,0,0,0,3.427-1.773v5.212a10.393,10.393,0,0,1-3.507.779,8.123,8.123,0,0,1-5.738-2.461,8.575,8.575,0,0,1-2.453-6.324,9.217,9.217,0,0,1,2.251-6.128,7.958,7.958,0,0,1,5.818-2.7,8.69,8.69,0,0,1,3.629.841Z" transform="translate(-195.544 -82.221)" fill="#161615"/>
        <path id="Tracciato_821" data-name="Tracciato 821" d="M324.77,111.754V105.3h3.972v16.733H324.77v-6.859h-5.737v6.859h-3.977V105.3h3.977v6.453Z" transform="translate(-251.224 -83.966)" fill="#161615"/>
        <path id="Tracciato_822" data-name="Tracciato 822" d="M399.386,108.983v2.8h4.482v3.682h-4.482v2.884h4.724v3.687h-8.7V105.3h8.7v3.683Z" transform="translate(-315.301 -83.966)" fill="#161615"/>
        <path id="Tracciato_823" data-name="Tracciato 823" d="M473.75,4.561l-.005,28.8c0,10.959,8.877,19.35,19.834,19.35s19.9-8.349,19.9-19.3V4.561Z" transform="translate(-377.761 -3.637)" fill="#fff"/>
        <path id="Tracciato_824" data-name="Tracciato 824" d="M473.75,4.561l-.005,28.8c0,10.959,8.877,19.35,19.834,19.35s19.9-8.349,19.9-19.3V4.561Z" transform="translate(-377.761 -3.637)" fill="none" stroke="#fff" stroke-width="9.123"/>
        <path id="Tracciato_825" data-name="Tracciato 825" d="M572.348,45.2a4.056,4.056,0,0,0-2.879,1.193l-.008-.006-9.105,9.1,5.756,5.745,2.167-2.166v10.5a4.067,4.067,0,1,0,8.133,0v-20.3a4.068,4.068,0,0,0-4.064-4.069" transform="translate(-446.824 -36.039)" fill="#11100d"/>
        <path id="Tracciato_826" data-name="Tracciato 826" d="M500.917,66.24,487.251,52.576a4.324,4.324,0,0,0-6.116-6.114l-.008-.008-7.381,7.381v.007h6.121v15.72a4.069,4.069,0,1,0,8.137,0V66.919a9.666,9.666,0,0,0,12.914-.679M484.193,46.72a2.8,2.8,0,1,1-2.795,2.8,2.8,2.8,0,0,1,2.795-2.8m-6.773,5.6v-.005l2.459-2.464a4.3,4.3,0,0,0,1.018,2.47Zm6.514,19.791a2.545,2.545,0,0,1-2.536-2.547V52.818a4.327,4.327,0,0,0,5.832-.222,9.661,9.661,0,0,0-.753,12.767v4.2a2.542,2.542,0,0,1-2.543,2.547m4.392-6.947a8.139,8.139,0,0,1-.981-10.332L498.66,66.136a8.147,8.147,0,0,1-.959.562l-5.385-5.381a.764.764,0,0,0-1.083,1.079l4.892,4.887a7.973,7.973,0,0,1-1.291.225l-4.36-4.356a.753.753,0,0,0-1.074,0,.744.744,0,0,0,0,1.079l3.171,3.17a8.085,8.085,0,0,1-4.245-2.241" transform="translate(-377.761 -36.039)" fill="#11100d"/>
        <path id="Tracciato_827" data-name="Tracciato 827" d="M473.75,4.137V18.943l4.593-4.6V8.877H508.88V33.025c0,8.422-6.834,14.773-15.259,14.773s-15.259-6.352-15.259-14.773l-.018-10.378H473.75l-.005,10.378c0,10.959,8.877,19.35,19.834,19.35s19.9-8.349,19.9-19.3V4.223Z" transform="translate(-377.761 -3.299)" fill="#1c822d"/>
      </g>
    </g>
  </g>
</svg>
