<svg xmlns="http://www.w3.org/2000/svg" xmlns:xlink="http://www.w3.org/1999/xlink" width="76.914" height="50" viewBox="0 0 76.914 50">
  <defs>
    <clipPath id="clip-path">
      <rect id="Rettangolo_428" data-name="Rettangolo 428" width="76.914" height="50" fill="none"/>
    </clipPath>
  </defs>
  <g id="Logo-RegionePuglia" transform="translate(-244.262 -5356.578)">
    <rect id="Rettangolo_419" data-name="Rettangolo 419" width="76.914" height="50" transform="translate(244.262 5356.578)" fill="none"/>
    <g id="Raggruppa_575" data-name="Raggruppa 575" transform="translate(244.262 5356.578)">
      <g id="Raggruppa_574" data-name="Raggruppa 574" clip-path="url(#clip-path)">
        <path id="Tracciato_828" data-name="Tracciato 828" d="M4.007,129.967l-1.473-3.01H1.473v3.01H0V122.42H2.957a2.282,2.282,0,0,1,2.449,2.311,2.032,2.032,0,0,1-1.378,1.982l1.685,3.254Zm-1.145-6.232H1.473v1.993H2.862a1,1,0,1,0,0-1.993" transform="translate(0 -80.03)" fill="#141215"/>
        <path id="Tracciato_829" data-name="Tracciato 829" d="M18.791,129.967V122.42h4.971v1.314h-3.5v1.77h2.978v1.314H20.264v1.833h3.5v1.314Z" transform="translate(-12.284 -80.03)" fill="#141215"/>
        <path id="Tracciato_830" data-name="Tracciato 830" d="M40.255,129.051a2.995,2.995,0,0,1-4.166.032c-.763-.763-.742-1.706-.742-3.01s-.021-2.247.742-3.01a2.746,2.746,0,0,1,2.035-.827,2.713,2.713,0,0,1,2.84,2.417H39.481a1.281,1.281,0,0,0-1.356-1.1,1.226,1.226,0,0,0-.944.4c-.286.318-.36.668-.36,2.12s.074,1.812.36,2.131a1.219,1.219,0,0,0,.944.392,1.383,1.383,0,0,0,1.048-.424,1.451,1.451,0,0,0,.339-1.007v-.286H38.124v-1.23h2.851v1.1a2.994,2.994,0,0,1-.721,2.3" transform="translate(-23.107 -79.91)" fill="#141215"/>
        <rect id="Rettangolo_422" data-name="Rettangolo 422" width="1.473" height="7.547" transform="translate(18.937 42.39)" fill="#141215"/>
        <path id="Tracciato_831" data-name="Tracciato 831" d="M66.887,129.084a2.931,2.931,0,0,1-4.081,0c-.763-.763-.742-1.706-.742-3.01s-.021-2.247.742-3.01a2.931,2.931,0,0,1,4.081,0c.763.763.752,1.706.752,3.01s.011,2.247-.752,3.01m-1.092-5.13a1.224,1.224,0,0,0-.943-.4,1.25,1.25,0,0,0-.954.4c-.286.318-.36.668-.36,2.12s.074,1.8.36,2.119a1.25,1.25,0,0,0,.954.4,1.224,1.224,0,0,0,.943-.4c.287-.318.371-.668.371-2.119s-.084-1.8-.371-2.12" transform="translate(-40.574 -79.911)" fill="#141215"/>
        <path id="Tracciato_832" data-name="Tracciato 832" d="M85.745,129.967l-2.989-4.632v4.632H81.283V122.42H82.6l2.989,4.621V122.42h1.473v7.547Z" transform="translate(-53.137 -80.03)" fill="#141215"/>
        <path id="Tracciato_833" data-name="Tracciato 833" d="M101.82,129.967V122.42h4.971v1.314h-3.5v1.77h2.978v1.314h-2.978v1.833h3.5v1.314Z" transform="translate(-66.563 -80.03)" fill="#141215"/>
        <path id="Tracciato_834" data-name="Tracciato 834" d="M127.912,127.126H126.46v2.84h-1.473V122.42h2.925a2.357,2.357,0,1,1,0,4.706m-.074-3.392H126.46V125.8h1.378a1.035,1.035,0,1,0,0-2.067" transform="translate(-81.708 -80.03)" fill="#141215"/>
        <path id="Tracciato_835" data-name="Tracciato 835" d="M145.422,130.03a2.623,2.623,0,0,1-2.777-2.65V122.42h1.473v4.907a1.311,1.311,0,1,0,2.618,0V122.42H148.2v4.961a2.623,2.623,0,0,1-2.777,2.65" transform="translate(-93.252 -80.03)" fill="#141215"/>
        <path id="Tracciato_836" data-name="Tracciato 836" d="M166.372,129.051a2.994,2.994,0,0,1-4.165.032c-.763-.763-.742-1.706-.742-3.01s-.021-2.247.742-3.01a2.747,2.747,0,0,1,2.035-.827,2.712,2.712,0,0,1,2.84,2.417H165.6a1.281,1.281,0,0,0-1.357-1.1,1.224,1.224,0,0,0-.943.4c-.287.318-.36.668-.36,2.12s.074,1.812.36,2.131a1.217,1.217,0,0,0,.943.392,1.386,1.386,0,0,0,1.05-.424,1.454,1.454,0,0,0,.339-1.007v-.286h-1.388v-1.23h2.851v1.1a2.993,2.993,0,0,1-.721,2.3" transform="translate(-105.555 -79.91)" fill="#141215"/>
        <path id="Tracciato_837" data-name="Tracciato 837" d="M180.807,129.967V122.42h1.473v6.232H185.7v1.314Z" transform="translate(-118.2 -80.03)" fill="#141215"/>
        <rect id="Rettangolo_423" data-name="Rettangolo 423" width="1.473" height="7.547" transform="translate(68.277 42.39)" fill="#141215"/>
        <path id="Tracciato_838" data-name="Tracciato 838" d="M208.023,129.967l-.446-1.335H204.9l-.455,1.335H202.9l2.745-7.547H206.8l2.756,7.547Zm-1.76-5.321-.954,2.745h1.876Z" transform="translate(-132.645 -80.03)" fill="#141215"/>
        <rect id="Rettangolo_424" data-name="Rettangolo 424" width="20.951" height="4.643" transform="translate(27.567 8.24)" fill="#fa0"/>
        <rect id="Rettangolo_425" data-name="Rettangolo 425" width="20.951" height="4.643" transform="translate(27.567 8.24)" fill="none" stroke="#141215" stroke-miterlimit="3.864" stroke-width="0.334"/>
        <path id="Tracciato_839" data-name="Tracciato 839" d="M79.612,37.206V55.837a2.087,2.087,0,0,0,2.178,2.178h6.534a1.841,1.841,0,0,1,1.319.8,3.749,3.749,0,0,1,.389,1.028,3.09,3.09,0,0,1,.817-1.416c.516-.344.576-.409.89-.409h6.879s1.946-.264,1.946-1.946V37.206Z" transform="translate(-52.045 -24.323)" fill="#007abf" fill-rule="evenodd"/>
        <path id="Tracciato_840" data-name="Tracciato 840" d="M79.612,37.206V55.837a2.087,2.087,0,0,0,2.178,2.178h6.534a1.841,1.841,0,0,1,1.319.8,3.749,3.749,0,0,1,.389,1.028,3.09,3.09,0,0,1,.817-1.416c.516-.344.576-.409.89-.409h6.879s1.946-.264,1.946-1.946V37.206Z" transform="translate(-52.045 -24.323)" fill="none" stroke="#141215" stroke-miterlimit="3.864" stroke-width="0.334"/>
        <path id="Tracciato_841" data-name="Tracciato 841" d="M85.774,28.953a.876.876,0,1,1,.876.877.876.876,0,0,1-.876-.877" transform="translate(-56.073 -18.355)" fill="#008137"/>
        <path id="Tracciato_842" data-name="Tracciato 842" d="M85.774,28.953a.876.876,0,1,1,.876.877A.876.876,0,0,1,85.774,28.953Z" transform="translate(-56.073 -18.355)" fill="none" stroke="#141215" stroke-miterlimit="3.864" stroke-width="0.334"/>
        <path id="Tracciato_843" data-name="Tracciato 843" d="M94.431,28.953a.876.876,0,1,1,.876.877.877.877,0,0,1-.876-.877" transform="translate(-61.733 -18.355)" fill="#008137"/>
        <path id="Tracciato_844" data-name="Tracciato 844" d="M94.431,28.953a.876.876,0,1,1,.876.877A.877.877,0,0,1,94.431,28.953Z" transform="translate(-61.733 -18.355)" fill="none" stroke="#141215" stroke-miterlimit="3.864" stroke-width="0.334"/>
        <path id="Tracciato_845" data-name="Tracciato 845" d="M103.087,28.953a.877.877,0,1,1,.876.877.877.877,0,0,1-.876-.877" transform="translate(-67.392 -18.355)" fill="#008137"/>
        <path id="Tracciato_846" data-name="Tracciato 846" d="M103.087,28.953a.877.877,0,1,1,.876.877A.877.877,0,0,1,103.087,28.953Z" transform="translate(-67.392 -18.355)" fill="none" stroke="#141215" stroke-miterlimit="3.864" stroke-width="0.334"/>
        <path id="Tracciato_847" data-name="Tracciato 847" d="M111.745,28.953a.877.877,0,1,1,.877.877.877.877,0,0,1-.877-.877" transform="translate(-73.052 -18.355)" fill="#008137"/>
        <path id="Tracciato_848" data-name="Tracciato 848" d="M111.745,28.953a.877.877,0,1,1,.877.877A.877.877,0,0,1,111.745,28.953Z" transform="translate(-73.052 -18.355)" fill="none" stroke="#141215" stroke-miterlimit="3.864" stroke-width="0.334"/>
        <path id="Tracciato_849" data-name="Tracciato 849" d="M129.059,28.953a.877.877,0,1,1,.876.877.877.877,0,0,1-.876-.877" transform="translate(-84.37 -18.355)" fill="#008137"/>
        <path id="Tracciato_850" data-name="Tracciato 850" d="M129.059,28.953a.877.877,0,1,1,.876.877A.877.877,0,0,1,129.059,28.953Z" transform="translate(-84.37 -18.355)" fill="none" stroke="#141215" stroke-miterlimit="3.864" stroke-width="0.334"/>
        <path id="Tracciato_851" data-name="Tracciato 851" d="M94.453,37.1H85.782l-6.17,6.2v8.5l6.193,6.148H94.38l6.174-6.125V43.082Z" transform="translate(-52.045 -24.254)" fill="#d80012" fill-rule="evenodd"/>
        <path id="Tracciato_852" data-name="Tracciato 852" d="M94.453,37.1H85.782l-6.17,6.2v8.5l6.193,6.148H94.38l6.174-6.125V43.082Z" transform="translate(-52.045 -24.254)" fill="none" stroke="#141215" stroke-miterlimit="3.864" stroke-width="0.334"/>
        <path id="Tracciato_853" data-name="Tracciato 853" d="M97.979,44.1H91.323l-4.757,4.758v6.526L91.342,60.1h6.582l4.738-4.7V48.688Z" transform="translate(-56.591 -28.827)" fill="#fff" fill-rule="evenodd"/>
        <path id="Tracciato_854" data-name="Tracciato 854" d="M97.979,44.1H91.323l-4.757,4.758v6.526L91.342,60.1h6.582l4.738-4.7V48.688Z" transform="translate(-56.591 -28.827)" fill="none" stroke="#141215" stroke-miterlimit="3.864" stroke-width="0.334"/>
        <path id="Tracciato_855" data-name="Tracciato 855" d="M106.578,68.024a.965.965,0,0,1-.456-.361c-.168-.264-.287-.48-.6-.577a.991.991,0,0,1-.864-.864,12.527,12.527,0,0,1-.049-2.667,3.321,3.321,0,0,1,.36-1.417,1.343,1.343,0,0,1,.576-.577,1.277,1.277,0,0,1,.576-.167c1.754-.528.265-.216.025-.168-.214.043-.216-.145-.216-.145s-.1-.1-.289.119-.335.432-.576.481a.345.345,0,0,1-.3-.039c-.051-.049-.058-.136.009-.273a3.956,3.956,0,0,1,.361-.769c.144-.145.385-.5.241-.407a7.709,7.709,0,0,0-.649.672,1.79,1.79,0,0,1-.169.335c-.119.194-.119.072-.191-.239a2.928,2.928,0,0,1-.024-.913c.024-.169.047-.456-.074-.288a1.442,1.442,0,0,0-.239.722c.024.168,0,.408.024.624s.12.6-.217.167-.407-.456-.479-.672a2.165,2.165,0,0,0-.336-.577c-.1-.12-.36-.215-.168.025a2.089,2.089,0,0,1,.383.769c.049.215.289.383.338.529s.289.576.072.48a2.1,2.1,0,0,1-.72-.48c-.216-.24-.432-.216-.528-.313s-.433-.383-.313-.167a1.447,1.447,0,0,0,.5.5,2.2,2.2,0,0,1,.793.721,1.369,1.369,0,0,1,.216.816,17.743,17.743,0,0,1,.048,1.971,3.826,3.826,0,0,1-.144,1.344,2.021,2.021,0,0,1-.937.793,2.668,2.668,0,0,0-.818.553c-.144.192-.432.649-.336.625s.312-.408.5-.578a1.758,1.758,0,0,1,.482-.337c.239-.118.215-.216.336-.167s.072.072.023.24-.047.191.169-.025a3.418,3.418,0,0,1,.311-.287l.194-.074a4.82,4.82,0,0,0-.313.576,2.065,2.065,0,0,1-.192.409,1.226,1.226,0,0,0-.169.529.98.98,0,0,0,.122.36.676.676,0,0,1-.049-.479c.072-.242.049-.217.24-.384s.288-.242.288-.242l.1.242s.071-.121.191-.339a2.36,2.36,0,0,0,.169-.36l.1-.287s0,.07.168.24a4.049,4.049,0,0,1,.457.407,2.3,2.3,0,0,1,.216.6l.1-.239s.072-.05.313.168.166.24.36.384.072-.072-.024-.241-.409-.456-.481-.577a5.417,5.417,0,0,0-.457-.5.679.679,0,0,1,.409.047,1.371,1.371,0,0,1,.529.241,1.154,1.154,0,0,1,.192.265s.193.576.193.023c0-.193-.073-.193.191.024a.74.74,0,0,0,.5.192" transform="translate(-66.286 -39.034)" fill="#fa0" fill-rule="evenodd"/>
        <path id="Tracciato_856" data-name="Tracciato 856" d="M106.578,68.024a.965.965,0,0,1-.456-.361c-.168-.264-.287-.48-.6-.577a.991.991,0,0,1-.864-.864,12.527,12.527,0,0,1-.049-2.667,3.321,3.321,0,0,1,.36-1.417,1.343,1.343,0,0,1,.576-.577,1.277,1.277,0,0,1,.576-.167c1.754-.528.265-.216.025-.168-.214.043-.216-.145-.216-.145s-.1-.1-.289.119-.335.432-.576.481a.345.345,0,0,1-.3-.039c-.051-.049-.058-.136.009-.273a3.956,3.956,0,0,1,.361-.769c.144-.145.385-.5.241-.407a7.709,7.709,0,0,0-.649.672,1.79,1.79,0,0,1-.169.335c-.119.194-.119.072-.191-.239a2.928,2.928,0,0,1-.024-.913c.024-.169.047-.456-.074-.288a1.442,1.442,0,0,0-.239.722c.024.168,0,.408.024.624s.12.6-.217.167-.407-.456-.479-.672a2.165,2.165,0,0,0-.336-.577c-.1-.12-.36-.215-.168.025a2.089,2.089,0,0,1,.383.769c.049.215.289.383.338.529s.289.576.072.48a2.1,2.1,0,0,1-.72-.48c-.216-.24-.432-.216-.528-.313s-.433-.383-.313-.167a1.447,1.447,0,0,0,.5.5,2.2,2.2,0,0,1,.793.721,1.369,1.369,0,0,1,.216.816,17.743,17.743,0,0,1,.048,1.971,3.826,3.826,0,0,1-.144,1.344,2.021,2.021,0,0,1-.937.793,2.668,2.668,0,0,0-.818.553c-.144.192-.432.649-.336.625s.312-.408.5-.578a1.758,1.758,0,0,1,.482-.337c.239-.118.215-.216.336-.167s.072.072.023.24-.047.191.169-.025a3.418,3.418,0,0,1,.311-.287l.194-.074a4.82,4.82,0,0,0-.313.576,2.065,2.065,0,0,1-.192.409,1.226,1.226,0,0,0-.169.529.98.98,0,0,0,.122.36.676.676,0,0,1-.049-.479c.072-.242.049-.217.24-.384s.288-.242.288-.242l.1.242s.071-.121.191-.339a2.36,2.36,0,0,0,.169-.36l.1-.287s0,.07.168.24a4.049,4.049,0,0,1,.457.407,2.3,2.3,0,0,1,.216.6l.1-.239s.072-.05.313.168.166.24.36.384.072-.072-.024-.241-.409-.456-.481-.577a5.417,5.417,0,0,0-.457-.5.679.679,0,0,1,.409.047,1.371,1.371,0,0,1,.529.241,1.154,1.154,0,0,1,.192.265s.193.576.193.023c0-.193-.073-.193.191.024A.74.74,0,0,0,106.578,68.024Z" transform="translate(-66.286 -39.034)" fill="none" stroke="#141215" stroke-miterlimit="3.864" stroke-width="0.334"/>
        <path id="Tracciato_857" data-name="Tracciato 857" d="M100.123,61.387a1.74,1.74,0,0,0-.552-.408c-.24-.072-.312-.072-.672-.168s-.434-.193-.434-.193" transform="translate(-64.369 -39.628)" fill="none" stroke="#141215" stroke-miterlimit="3.864" stroke-width="0.334"/>
        <path id="Tracciato_858" data-name="Tracciato 858" d="M100.794,63.9s-.263-.025-.624-.025H99.5l-.337.1" transform="translate(-64.825 -41.759)" fill="none" stroke="#141215" stroke-miterlimit="3.864" stroke-width="0.334"/>
        <path id="Tracciato_859" data-name="Tracciato 859" d="M101.939,57.323s-.288-.239-.625-.5-.743-.576-.743-.576a2.808,2.808,0,0,1-.5-.482" transform="translate(-65.417 -36.454)" fill="none" stroke="#141215" stroke-miterlimit="3.864" stroke-width="0.334"/>
        <path id="Tracciato_860" data-name="Tracciato 860" d="M106.105,55.73s0-.7-.025-.96a5,5,0,0,1,0-.626s0-.5-.024-.745a1.039,1.039,0,0,0-.1-.48" transform="translate(-69.271 -34.595)" fill="none" stroke="#141215" stroke-miterlimit="3.864" stroke-width="0.334"/>
        <path id="Tracciato_861" data-name="Tracciato 861" d="M103.99,53.366a2.5,2.5,0,0,1-.624-.577c-.113-.157-.236-.353-.336-.515-.112-.184-.194-.326-.194-.326" transform="translate(-67.227 -33.96)" fill="none" stroke="#141215" stroke-miterlimit="3.864" stroke-width="0.334"/>
        <path id="Tracciato_862" data-name="Tracciato 862" d="M109.3,58.429a.345.345,0,0,1-.1-.361,1.191,1.191,0,0,1,.167-.433" transform="translate(-71.382 -37.678)" fill="none" stroke="#141215" stroke-miterlimit="3.864" stroke-width="0.334"/>
        <path id="Tracciato_863" data-name="Tracciato 863" d="M108.3,53.368a3.108,3.108,0,0,0,.264-.769,1.256,1.256,0,0,0-.143-1.129c-.337-.529-.529-.648-.649-.865a2.736,2.736,0,0,1-.288-.6" transform="translate(-70.267 -32.689)" fill="none" stroke="#141215" stroke-miterlimit="3.864" stroke-width="0.334"/>
        <path id="Tracciato_864" data-name="Tracciato 864" d="M111.52,48.616a3.133,3.133,0,0,0-.288.624,3.225,3.225,0,0,0-.145.627,5.088,5.088,0,0,1-.048.6,2.651,2.651,0,0,0-.024.576s-.144.481-.409.6" transform="translate(-72.307 -31.782)" fill="none" stroke="#141215" stroke-miterlimit="3.864" stroke-width="0.334"/>
        <line id="Linea_65" data-name="Linea 65" x2="0.456" y2="0.625" transform="translate(38.299 17.555)" fill="none" stroke="#141215" stroke-miterlimit="3.864" stroke-width="0.334"/>
        <path id="Tracciato_865" data-name="Tracciato 865" d="M109.845,57.976a1.656,1.656,0,0,0,.6-.385,2.552,2.552,0,0,0,.553-.649" transform="translate(-71.81 -37.225)" fill="none" stroke="#141215" stroke-miterlimit="3.864" stroke-width="0.334"/>
        <path id="Tracciato_866" data-name="Tracciato 866" d="M113.038,56.05a3.356,3.356,0,0,0,.623-.864,2.76,2.76,0,0,0,.169-1.369c-.072-.361-.1-.48-.1-.48" transform="translate(-73.897 -34.868)" fill="none" stroke="#141215" stroke-miterlimit="3.864" stroke-width="0.334"/>
        <path id="Tracciato_867" data-name="Tracciato 867" d="M115.118,56.053a6.544,6.544,0,0,0,.529-.5c.216-.24.288-.192.48-.407" transform="translate(-75.257 -36.048)" fill="none" stroke="#141215" stroke-miterlimit="3.864" stroke-width="0.334"/>
        <path id="Tracciato_868" data-name="Tracciato 868" d="M114.218,61.493l.528-.383a.934.934,0,0,1,.383-.218c.313-.119.289-.023.529-.119a1.2,1.2,0,0,0,.432-.36" transform="translate(-74.668 -39.494)" fill="none" stroke="#141215" stroke-miterlimit="3.864" stroke-width="0.334"/>
        <path id="Tracciato_869" data-name="Tracciato 869" d="M104.356,64.991l-.408.095s.047.145.288.1a.9.9,0,0,0,.336-.121Z" transform="translate(-67.954 -42.487)" fill="#008137" fill-rule="evenodd"/>
        <path id="Tracciato_870" data-name="Tracciato 870" d="M104.356,64.991l-.408.095s.047.145.288.1a.9.9,0,0,0,.336-.121Z" transform="translate(-67.954 -42.487)" fill="none" stroke="#141215" stroke-miterlimit="3.864" stroke-width="0.334"/>
        <path id="Tracciato_871" data-name="Tracciato 871" d="M99.809,59.28s-.1-.024-.05.168a1.828,1.828,0,0,0,.41.528s.216.026-.072-.384-.287-.312-.287-.312" transform="translate(-65.208 -38.747)" fill="#008137" fill-rule="evenodd"/>
        <path id="Tracciato_872" data-name="Tracciato 872" d="M99.809,59.28s-.1-.024-.05.168a1.828,1.828,0,0,0,.41.528s.216.026-.072-.384S99.809,59.28,99.809,59.28Z" transform="translate(-65.208 -38.747)" fill="none" stroke="#141215" stroke-miterlimit="3.864" stroke-width="0.334"/>
        <path id="Tracciato_873" data-name="Tracciato 873" d="M102,49.691s-.088-.044-.082.154a1.79,1.79,0,0,0,.29.6s.206.069.01-.39-.217-.366-.217-.366" transform="translate(-66.626 -32.48)" fill="#008137" fill-rule="evenodd"/>
        <path id="Tracciato_874" data-name="Tracciato 874" d="M102,49.691s-.088-.044-.082.154a1.79,1.79,0,0,0,.29.6s.206.069.01-.39S102,49.691,102,49.691Z" transform="translate(-66.626 -32.48)" fill="none" stroke="#141215" stroke-miterlimit="3.864" stroke-width="0.334"/>
        <path id="Tracciato_875" data-name="Tracciato 875" d="M102.558,63.9s-.385.312-.217.336.432-.313.432-.313l-.167-.048Z" transform="translate(-66.876 -41.759)" fill="#008137" fill-rule="evenodd"/>
        <path id="Tracciato_876" data-name="Tracciato 876" d="M102.558,63.9s-.385.312-.217.336.432-.313.432-.313l-.167-.048Z" transform="translate(-66.876 -41.759)" fill="none" stroke="#141215" stroke-miterlimit="3.864" stroke-width="0.334"/>
        <path id="Tracciato_877" data-name="Tracciato 877" d="M98.341,64.028s-.047-.074-.193,0a.318.318,0,0,0-.167.215s.071.048.216-.023a.233.233,0,0,0,.144-.192" transform="translate(-64.054 -41.836)" fill="#008137" fill-rule="evenodd"/>
        <path id="Tracciato_878" data-name="Tracciato 878" d="M98.341,64.028s-.047-.074-.193,0a.318.318,0,0,0-.167.215s.071.048.216-.023A.233.233,0,0,0,98.341,64.028Z" transform="translate(-64.054 -41.836)" fill="none" stroke="#141215" stroke-miterlimit="3.864" stroke-width="0.334"/>
        <path id="Tracciato_879" data-name="Tracciato 879" d="M101.614,63.313s-.1-.072-.24-.168a.9.9,0,0,0-.408-.1s.047.24.193.24.407.024.407.024Z" transform="translate(-66.005 -41.217)" fill="#008137" fill-rule="evenodd"/>
        <path id="Tracciato_880" data-name="Tracciato 880" d="M101.614,63.313s-.1-.072-.24-.168a.9.9,0,0,0-.408-.1s.047.24.193.24.407.024.407.024Z" transform="translate(-66.005 -41.217)" fill="none" stroke="#141215" stroke-miterlimit="3.864" stroke-width="0.334"/>
        <path id="Tracciato_881" data-name="Tracciato 881" d="M97.384,59.563a4.114,4.114,0,0,1-.239-.384c-.073-.144-.168-.121-.311-.194s-.122.073.047.242a2.44,2.44,0,0,0,.5.336" transform="translate(-63.241 -38.549)" fill="#008137" fill-rule="evenodd"/>
        <path id="Tracciato_882" data-name="Tracciato 882" d="M97.384,59.563a4.114,4.114,0,0,1-.239-.384c-.073-.144-.168-.121-.311-.194s-.122.073.047.242A2.44,2.44,0,0,0,97.384,59.563Z" transform="translate(-63.241 -38.549)" fill="none" stroke="#141215" stroke-miterlimit="3.864" stroke-width="0.334"/>
        <path id="Tracciato_883" data-name="Tracciato 883" d="M99.291,54.447s-.025-.143-.048-.313-.36-.384-.36-.384a.692.692,0,0,0,.119.457,2.039,2.039,0,0,0,.289.24" transform="translate(-64.642 -35.138)" fill="#008137" fill-rule="evenodd"/>
        <path id="Tracciato_884" data-name="Tracciato 884" d="M99.291,54.447s-.025-.143-.048-.313-.36-.384-.36-.384a.692.692,0,0,0,.119.457A2.039,2.039,0,0,0,99.291,54.447Z" transform="translate(-64.642 -35.138)" fill="none" stroke="#141215" stroke-miterlimit="3.864" stroke-width="0.334"/>
        <path id="Tracciato_885" data-name="Tracciato 885" d="M99.473,57.078s-.169-.048-.385-.1a1.623,1.623,0,0,0-.554.024.7.7,0,0,0,.41.168,1.213,1.213,0,0,0,.529-.1" transform="translate(-64.416 -37.24)" fill="#008137" fill-rule="evenodd"/>
        <path id="Tracciato_886" data-name="Tracciato 886" d="M99.473,57.078s-.169-.048-.385-.1a1.623,1.623,0,0,0-.554.024.7.7,0,0,0,.41.168A1.213,1.213,0,0,0,99.473,57.078Z" transform="translate(-64.416 -37.24)" fill="none" stroke="#141215" stroke-miterlimit="3.864" stroke-width="0.334"/>
        <path id="Tracciato_887" data-name="Tracciato 887" d="M97.678,60.967a.258.258,0,0,1-.265.145c-.191-.026-.384-.073-.264.047a.336.336,0,0,0,.431.072.245.245,0,0,0,.1-.265" transform="translate(-63.485 -39.856)" fill="#008137" fill-rule="evenodd"/>
        <path id="Tracciato_888" data-name="Tracciato 888" d="M97.678,60.967a.258.258,0,0,1-.265.145c-.191-.026-.384-.073-.264.047a.336.336,0,0,0,.431.072A.245.245,0,0,0,97.678,60.967Z" transform="translate(-63.485 -39.856)" fill="none" stroke="#141215" stroke-miterlimit="3.864" stroke-width="0.334"/>
        <path id="Tracciato_889" data-name="Tracciato 889" d="M99.026,60.1s-.025-.288-.12-.361-.193.024-.1.121.216.24.216.24" transform="translate(-64.569 -39.037)" fill="#008137" fill-rule="evenodd"/>
        <path id="Tracciato_890" data-name="Tracciato 890" d="M99.026,60.1s-.025-.288-.12-.361-.193.024-.1.121S99.026,60.1,99.026,60.1Z" transform="translate(-64.569 -39.037)" fill="none" stroke="#141215" stroke-miterlimit="3.864" stroke-width="0.334"/>
        <path id="Tracciato_891" data-name="Tracciato 891" d="M102.589,56.421a1.076,1.076,0,0,0,.072-.528.673.673,0,0,0-.145-.336,1.383,1.383,0,0,0-.1.408,1.28,1.28,0,0,0,.169.456" transform="translate(-66.956 -36.32)" fill="#008137" fill-rule="evenodd"/>
        <path id="Tracciato_892" data-name="Tracciato 892" d="M102.589,56.421a1.076,1.076,0,0,0,.072-.528.673.673,0,0,0-.145-.336,1.383,1.383,0,0,0-.1.408A1.28,1.28,0,0,0,102.589,56.421Z" transform="translate(-66.956 -36.32)" fill="none" stroke="#141215" stroke-miterlimit="3.864" stroke-width="0.334"/>
        <path id="Tracciato_893" data-name="Tracciato 893" d="M103.707,52.008a3.145,3.145,0,0,1-.049-.48,1.4,1.4,0,0,0-.121-.479,1.279,1.279,0,0,0-.143.383,1.72,1.72,0,0,0,.12.409Z" transform="translate(-67.592 -33.373)" fill="#008137" fill-rule="evenodd"/>
        <path id="Tracciato_894" data-name="Tracciato 894" d="M103.707,52.008a3.145,3.145,0,0,1-.049-.48,1.4,1.4,0,0,0-.121-.479,1.279,1.279,0,0,0-.143.383,1.72,1.72,0,0,0,.12.409Z" transform="translate(-67.592 -33.373)" fill="none" stroke="#141215" stroke-miterlimit="3.864" stroke-width="0.334"/>
        <path id="Tracciato_895" data-name="Tracciato 895" d="M105.1,49.936a1.66,1.66,0,0,1,.1.455,2.76,2.76,0,0,0,.121.578.818.818,0,0,1-.337-.5.984.984,0,0,1,.119-.529" transform="translate(-68.629 -32.645)" fill="#008137" fill-rule="evenodd"/>
        <path id="Tracciato_896" data-name="Tracciato 896" d="M105.1,49.936a1.66,1.66,0,0,1,.1.455,2.76,2.76,0,0,0,.121.578.818.818,0,0,1-.337-.5A.984.984,0,0,1,105.1,49.936Z" transform="translate(-68.629 -32.645)" fill="none" stroke="#141215" stroke-miterlimit="3.864" stroke-width="0.334"/>
        <path id="Tracciato_897" data-name="Tracciato 897" d="M106.984,48.553s.12-.312.024-.481a.975.975,0,0,0-.289-.288s.05.241.1.409a1.73,1.73,0,0,0,.168.36" transform="translate(-69.766 -31.238)" fill="#008137" fill-rule="evenodd"/>
        <path id="Tracciato_898" data-name="Tracciato 898" d="M106.984,48.553s.12-.312.024-.481a.975.975,0,0,0-.289-.288s.05.241.1.409A1.73,1.73,0,0,0,106.984,48.553Z" transform="translate(-69.766 -31.238)" fill="none" stroke="#141215" stroke-miterlimit="3.864" stroke-width="0.334"/>
        <path id="Tracciato_899" data-name="Tracciato 899" d="M109.387,51.948a.561.561,0,0,0,.1-.336.609.609,0,0,0-.122-.363.623.623,0,0,0-.143.313,1.4,1.4,0,0,0,.1.385Z" transform="translate(-71.401 -33.504)" fill="#008137" fill-rule="evenodd"/>
        <path id="Tracciato_900" data-name="Tracciato 900" d="M109.387,51.948a.561.561,0,0,0,.1-.336.609.609,0,0,0-.122-.363.623.623,0,0,0-.143.313,1.4,1.4,0,0,0,.1.385Z" transform="translate(-71.401 -33.504)" fill="none" stroke="#141215" stroke-miterlimit="3.864" stroke-width="0.334"/>
        <path id="Tracciato_901" data-name="Tracciato 901" d="M105.481,57.942s-.24-.118-.288-.264-.24-.119-.1.145a.61.61,0,0,0,.336.311l.024-.24Z" transform="translate(-68.671 -37.649)" fill="#008137" fill-rule="evenodd"/>
        <path id="Tracciato_902" data-name="Tracciato 902" d="M105.481,57.942s-.24-.118-.288-.264-.24-.119-.1.145a.61.61,0,0,0,.336.311l.024-.24Z" transform="translate(-68.671 -37.649)" fill="none" stroke="#141215" stroke-miterlimit="3.864" stroke-width="0.334"/>
        <path id="Tracciato_903" data-name="Tracciato 903" d="M107.928,57.257a.943.943,0,0,0-.288-.288,1.022,1.022,0,0,0-.431-.1,1.338,1.338,0,0,0,.288.312.854.854,0,0,0,.432.073" transform="translate(-70.086 -37.179)" fill="#008137" fill-rule="evenodd"/>
        <path id="Tracciato_904" data-name="Tracciato 904" d="M107.928,57.257a.943.943,0,0,0-.288-.288,1.022,1.022,0,0,0-.431-.1,1.338,1.338,0,0,0,.288.312A.854.854,0,0,0,107.928,57.257Z" transform="translate(-70.086 -37.179)" fill="none" stroke="#141215" stroke-miterlimit="3.864" stroke-width="0.334"/>
        <path id="Tracciato_905" data-name="Tracciato 905" d="M111.425,54.854l.24-.265.24-.143a1.3,1.3,0,0,1-.216.529,2.009,2.009,0,0,1-.456.287l.144-.385Z" transform="translate(-72.717 -35.593)" fill="#008137" fill-rule="evenodd"/>
        <path id="Tracciato_906" data-name="Tracciato 906" d="M111.425,54.854l.24-.265.24-.143a1.3,1.3,0,0,1-.216.529,2.009,2.009,0,0,1-.456.287l.144-.385Z" transform="translate(-72.717 -35.593)" fill="none" stroke="#141215" stroke-miterlimit="3.864" stroke-width="0.334"/>
        <path id="Tracciato_907" data-name="Tracciato 907" d="M109.455,56.063a1.6,1.6,0,0,0-.41-.191.427.427,0,0,0-.311.025s.191.119.311.216a.7.7,0,0,0,.289.119Z" transform="translate(-71.083 -36.514)" fill="#008137" fill-rule="evenodd"/>
        <path id="Tracciato_908" data-name="Tracciato 908" d="M109.455,56.063a1.6,1.6,0,0,0-.41-.191.427.427,0,0,0-.311.025s.191.119.311.216a.7.7,0,0,0,.289.119Z" transform="translate(-71.083 -36.514)" fill="none" stroke="#141215" stroke-miterlimit="3.864" stroke-width="0.334"/>
        <path id="Tracciato_909" data-name="Tracciato 909" d="M104.949,63.06a1.64,1.64,0,0,0-.049-.385c-.047-.169-.119-.072-.119.12a.294.294,0,0,0,.168.265" transform="translate(-68.499 -40.916)" fill="#008137" fill-rule="evenodd"/>
        <path id="Tracciato_910" data-name="Tracciato 910" d="M104.949,63.06a1.64,1.64,0,0,0-.049-.385c-.047-.169-.119-.072-.119.12A.294.294,0,0,0,104.949,63.06Z" transform="translate(-68.499 -40.916)" fill="none" stroke="#141215" stroke-miterlimit="3.864" stroke-width="0.334"/>
        <path id="Tracciato_911" data-name="Tracciato 911" d="M103.493,58.065a1.65,1.65,0,0,0-.048-.384c-.047-.169-.118-.072-.118.12a.294.294,0,0,0,.167.264" transform="translate(-67.548 -37.651)" fill="#008137" fill-rule="evenodd"/>
        <path id="Tracciato_912" data-name="Tracciato 912" d="M103.493,58.065a1.65,1.65,0,0,0-.048-.384c-.047-.169-.118-.072-.118.12A.294.294,0,0,0,103.493,58.065Z" transform="translate(-67.548 -37.651)" fill="none" stroke="#141215" stroke-miterlimit="3.864" stroke-width="0.334"/>
        <path id="Tracciato_913" data-name="Tracciato 913" d="M105.362,62.627a3.76,3.76,0,0,0-.383-.12.914.914,0,0,0-.336-.023,1.335,1.335,0,0,0,.433.264,1.826,1.826,0,0,0,.384.047Z" transform="translate(-68.408 -40.843)" fill="#008137" fill-rule="evenodd"/>
        <path id="Tracciato_914" data-name="Tracciato 914" d="M105.362,62.627a3.76,3.76,0,0,0-.383-.12.914.914,0,0,0-.336-.023,1.335,1.335,0,0,0,.433.264,1.826,1.826,0,0,0,.384.047Z" transform="translate(-68.408 -40.843)" fill="none" stroke="#141215" stroke-miterlimit="3.864" stroke-width="0.334"/>
        <path id="Tracciato_915" data-name="Tracciato 915" d="M103.1,61.476a1.02,1.02,0,0,0-.024-.359.312.312,0,0,0-.241-.288,1.018,1.018,0,0,1,.049.288,1.461,1.461,0,0,0,.072.359Z" transform="translate(-67.227 -39.766)" fill="#008137" fill-rule="evenodd"/>
        <path id="Tracciato_916" data-name="Tracciato 916" d="M103.1,61.476a1.02,1.02,0,0,0-.024-.359.312.312,0,0,0-.241-.288,1.018,1.018,0,0,1,.049.288,1.461,1.461,0,0,0,.072.359Z" transform="translate(-67.227 -39.766)" fill="none" stroke="#141215" stroke-miterlimit="3.864" stroke-width="0.334"/>
        <path id="Tracciato_917" data-name="Tracciato 917" d="M100.648,62.147s-.215.047-.48.1a.677.677,0,0,0-.384.192.686.686,0,0,0,.337.072,2.7,2.7,0,0,0,.48-.192Z" transform="translate(-65.232 -40.628)" fill="#008137" fill-rule="evenodd"/>
        <path id="Tracciato_918" data-name="Tracciato 918" d="M100.648,62.147s-.215.047-.48.1a.677.677,0,0,0-.384.192.686.686,0,0,0,.337.072,2.7,2.7,0,0,0,.48-.192Z" transform="translate(-65.232 -40.628)" fill="none" stroke="#141215" stroke-miterlimit="3.864" stroke-width="0.334"/>
        <line id="Linea_66" data-name="Linea 66" x1="0.361" y2="0.216" transform="translate(34.551 21.279)" fill="none" stroke="#141215" stroke-miterlimit="3.864" stroke-width="0.334"/>
        <line id="Linea_67" data-name="Linea 67" y1="0.312" x2="0.143" transform="translate(35.297 21.086)" fill="none" stroke="#141215" stroke-miterlimit="3.864" stroke-width="0.334"/>
        <line id="Linea_68" data-name="Linea 68" y1="0.266" x2="0.096" transform="translate(36.738 22.118)" fill="none" stroke="#141215" stroke-miterlimit="3.864" stroke-width="0.334"/>
        <line id="Linea_69" data-name="Linea 69" x1="0.289" y2="0.073" transform="translate(36.401 21.23)" fill="none" stroke="#141215" stroke-miterlimit="3.864" stroke-width="0.334"/>
        <line id="Linea_70" data-name="Linea 70" x1="0.527" y1="0.025" transform="translate(35.058 20.15)" fill="none" stroke="#141215" stroke-miterlimit="3.864" stroke-width="0.334"/>
        <line id="Linea_71" data-name="Linea 71" x1="0.456" transform="translate(35.922 20.751)" fill="none" stroke="#141215" stroke-miterlimit="3.864" stroke-width="0.334"/>
        <path id="Tracciato_919" data-name="Tracciato 919" d="M102.065,58.957a1.873,1.873,0,0,0-.457-.072c-.215,0-.6.047-.143.168s.6-.1.6-.1" transform="translate(-66.191 -38.495)" fill="#008137" fill-rule="evenodd"/>
        <path id="Tracciato_920" data-name="Tracciato 920" d="M102.065,58.957a1.873,1.873,0,0,0-.457-.072c-.215,0-.6.047-.143.168S102.065,58.957,102.065,58.957Z" transform="translate(-66.191 -38.495)" fill="none" stroke="#141215" stroke-miterlimit="3.864" stroke-width="0.334"/>
        <path id="Tracciato_921" data-name="Tracciato 921" d="M104.441,57.786a2.669,2.669,0,0,0,.047-.431,1.737,1.737,0,0,0-.191-.553v.507a1.408,1.408,0,0,0,.143.478" transform="translate(-68.183 -37.133)" fill="#008137" fill-rule="evenodd"/>
        <path id="Tracciato_922" data-name="Tracciato 922" d="M104.441,57.786a2.669,2.669,0,0,0,.047-.431,1.737,1.737,0,0,0-.191-.553v.507A1.408,1.408,0,0,0,104.441,57.786Z" transform="translate(-68.183 -37.133)" fill="none" stroke="#141215" stroke-miterlimit="3.864" stroke-width="0.334"/>
        <path id="Tracciato_923" data-name="Tracciato 923" d="M100.942,55.12a.9.9,0,0,0,.144-.359.678.678,0,0,0-.1-.385.629.629,0,0,0-.1.312c0,.168.025.385.025.385Z" transform="translate(-65.957 -35.547)" fill="#008137" fill-rule="evenodd"/>
        <path id="Tracciato_924" data-name="Tracciato 924" d="M100.942,55.12a.9.9,0,0,0,.144-.359.678.678,0,0,0-.1-.385.629.629,0,0,0-.1.312c0,.168.025.385.025.385Z" transform="translate(-65.957 -35.547)" fill="none" stroke="#141215" stroke-miterlimit="3.864" stroke-width="0.334"/>
        <path id="Tracciato_925" data-name="Tracciato 925" d="M102.444,53.657a.536.536,0,0,1-.311-.119c-.145-.119-.529-.168-.432-.024a.443.443,0,0,0,.408.216.817.817,0,0,0,.336-.072" transform="translate(-66.475 -34.926)" fill="#008137" fill-rule="evenodd"/>
        <path id="Tracciato_926" data-name="Tracciato 926" d="M102.444,53.657a.536.536,0,0,1-.311-.119c-.145-.119-.529-.168-.432-.024a.443.443,0,0,0,.408.216A.817.817,0,0,0,102.444,53.657Z" transform="translate(-66.475 -34.926)" fill="none" stroke="#141215" stroke-miterlimit="3.864" stroke-width="0.334"/>
        <path id="Tracciato_927" data-name="Tracciato 927" d="M104.732,55.624s0,.048-.215.168-.167.361.048.216a.388.388,0,0,0,.167-.385" transform="translate(-68.235 -36.363)" fill="#008137" fill-rule="evenodd"/>
        <path id="Tracciato_928" data-name="Tracciato 928" d="M104.732,55.624s0,.048-.215.168-.167.361.048.216A.388.388,0,0,0,104.732,55.624Z" transform="translate(-68.235 -36.363)" fill="none" stroke="#141215" stroke-miterlimit="3.864" stroke-width="0.334"/>
        <path id="Tracciato_929" data-name="Tracciato 929" d="M102.165,52.335a.6.6,0,0,0-.313-.047c-.167.024-.167.239.072.215s.241-.168.241-.168" transform="translate(-66.507 -34.179)" fill="#008137" fill-rule="evenodd"/>
        <path id="Tracciato_930" data-name="Tracciato 930" d="M102.165,52.335a.6.6,0,0,0-.313-.047c-.167.024-.167.239.072.215S102.165,52.335,102.165,52.335Z" transform="translate(-66.507 -34.179)" fill="none" stroke="#141215" stroke-miterlimit="3.864" stroke-width="0.334"/>
        <path id="Tracciato_931" data-name="Tracciato 931" d="M106.229,49.612s-.192-.072-.337-.144-.408,0-.143.193a.794.794,0,0,0,.5.215c.12,0-.024-.336-.024-.336Z" transform="translate(-69.058 -32.321)" fill="#008137" fill-rule="evenodd"/>
        <path id="Tracciato_932" data-name="Tracciato 932" d="M106.229,49.612s-.192-.072-.337-.144-.408,0-.143.193a.794.794,0,0,0,.5.215c.12,0-.024-.336-.024-.336Z" transform="translate(-69.058 -32.321)" fill="none" stroke="#141215" stroke-miterlimit="3.864" stroke-width="0.334"/>
        <path id="Tracciato_933" data-name="Tracciato 933" d="M106.285,54.252l.24-.433a2.183,2.183,0,0,1-.072.553.5.5,0,0,1-.216.288v-.408Z" transform="translate(-69.451 -35.183)" fill="#008137" fill-rule="evenodd"/>
        <path id="Tracciato_934" data-name="Tracciato 934" d="M106.285,54.252l.24-.433a2.183,2.183,0,0,1-.072.553.5.5,0,0,1-.216.288v-.408Z" transform="translate(-69.451 -35.183)" fill="none" stroke="#141215" stroke-miterlimit="3.864" stroke-width="0.334"/>
        <path id="Tracciato_935" data-name="Tracciato 935" d="M107.669,61.874a.522.522,0,0,0,.12-.358c-.024-.193-.1-.481-.1-.481a.723.723,0,0,0-.145.337,1.236,1.236,0,0,0,.12.5" transform="translate(-70.307 -39.901)" fill="#008137" fill-rule="evenodd"/>
        <path id="Tracciato_936" data-name="Tracciato 936" d="M107.669,61.874a.522.522,0,0,0,.12-.358c-.024-.193-.1-.481-.1-.481a.723.723,0,0,0-.145.337A1.236,1.236,0,0,0,107.669,61.874Z" transform="translate(-70.307 -39.901)" fill="none" stroke="#141215" stroke-miterlimit="3.864" stroke-width="0.334"/>
        <path id="Tracciato_937" data-name="Tracciato 937" d="M106.72,60.248a.256.256,0,0,0,.218-.193.618.618,0,0,0-.024-.41s-.168.145-.168.266-.026.384-.026.384Z" transform="translate(-69.767 -38.992)" fill="#008137" fill-rule="evenodd"/>
        <path id="Tracciato_938" data-name="Tracciato 938" d="M106.72,60.248a.256.256,0,0,0,.218-.193.618.618,0,0,0-.024-.41s-.168.145-.168.266-.026.384-.026.384Z" transform="translate(-69.767 -38.992)" fill="none" stroke="#141215" stroke-miterlimit="3.864" stroke-width="0.334"/>
        <path id="Tracciato_939" data-name="Tracciato 939" d="M108.169,60.655s-.216-.312-.313-.312.12.312.169.481a.278.278,0,0,0,.216.191Z" transform="translate(-70.493 -39.448)" fill="#008137" fill-rule="evenodd"/>
        <path id="Tracciato_940" data-name="Tracciato 940" d="M108.169,60.655s-.216-.312-.313-.312.12.312.169.481a.278.278,0,0,0,.216.191Z" transform="translate(-70.493 -39.448)" fill="none" stroke="#141215" stroke-miterlimit="3.864" stroke-width="0.334"/>
        <path id="Tracciato_941" data-name="Tracciato 941" d="M106.33,58.249s.072.144.216-.049a.851.851,0,0,1,.192-.215.892.892,0,0,1-.071.358c-.073.122-.337.145-.337.145l-.025-.289Z" transform="translate(-69.495 -37.907)" fill="#008137" fill-rule="evenodd"/>
        <path id="Tracciato_942" data-name="Tracciato 942" d="M106.33,58.249s.072.144.216-.049a.851.851,0,0,1,.192-.215.892.892,0,0,1-.071.358c-.073.122-.337.145-.337.145l-.025-.289Z" transform="translate(-69.495 -37.907)" fill="none" stroke="#141215" stroke-miterlimit="3.864" stroke-width="0.334"/>
        <path id="Tracciato_943" data-name="Tracciato 943" d="M106.146,52.2s.12-.05.143-.265a.426.426,0,0,0-.095-.336.59.59,0,0,0-.1.265,2.128,2.128,0,0,0,.048.336" transform="translate(-69.36 -33.733)" fill="#008137" fill-rule="evenodd"/>
        <path id="Tracciato_944" data-name="Tracciato 944" d="M106.146,52.2s.12-.05.143-.265a.426.426,0,0,0-.095-.336.59.59,0,0,0-.1.265A2.128,2.128,0,0,0,106.146,52.2Z" transform="translate(-69.36 -33.733)" fill="none" stroke="#141215" stroke-miterlimit="3.864" stroke-width="0.334"/>
        <path id="Tracciato_945" data-name="Tracciato 945" d="M107.854,59.026a1.246,1.246,0,0,0-.384-.072.7.7,0,0,0-.288.048s-.1.024.216.144a.991.991,0,0,0,.456.1Z" transform="translate(-70.059 -38.54)" fill="#008137" fill-rule="evenodd"/>
        <path id="Tracciato_946" data-name="Tracciato 946" d="M107.854,59.026a1.246,1.246,0,0,0-.384-.072.7.7,0,0,0-.288.048s-.1.024.216.144a.991.991,0,0,0,.456.1Z" transform="translate(-70.059 -38.54)" fill="none" stroke="#141215" stroke-miterlimit="3.864" stroke-width="0.334"/>
        <path id="Tracciato_947" data-name="Tracciato 947" d="M108.731,53.815s-.528.121-.7-.121-.24-.336.025-.264a2.73,2.73,0,0,1,.672.384" transform="translate(-70.527 -34.914)" fill="#008137" fill-rule="evenodd"/>
        <path id="Tracciato_948" data-name="Tracciato 948" d="M108.731,53.815s-.528.121-.7-.121-.24-.336.025-.264A2.73,2.73,0,0,1,108.731,53.815Z" transform="translate(-70.527 -34.914)" fill="none" stroke="#141215" stroke-miterlimit="3.864" stroke-width="0.334"/>
        <path id="Tracciato_949" data-name="Tracciato 949" d="M108.173,52.775s-.529-.073-.6-.168,0-.215.168-.144a4.991,4.991,0,0,1,.481.264Z" transform="translate(-70.305 -34.282)" fill="#008137" fill-rule="evenodd"/>
        <path id="Tracciato_950" data-name="Tracciato 950" d="M108.173,52.775s-.529-.073-.6-.168,0-.215.168-.144a4.991,4.991,0,0,1,.481.264Z" transform="translate(-70.305 -34.282)" fill="none" stroke="#141215" stroke-miterlimit="3.864" stroke-width="0.334"/>
        <path id="Tracciato_951" data-name="Tracciato 951" d="M107.192,51.639s-.457.071-.6-.169-.17-.194.1-.12a1.46,1.46,0,0,1,.505.289" transform="translate(-69.613 -33.531)" fill="#008137" fill-rule="evenodd"/>
        <path id="Tracciato_952" data-name="Tracciato 952" d="M107.192,51.639s-.457.071-.6-.169-.17-.194.1-.12A1.46,1.46,0,0,1,107.192,51.639Z" transform="translate(-69.613 -33.531)" fill="none" stroke="#141215" stroke-miterlimit="3.864" stroke-width="0.334"/>
        <path id="Tracciato_953" data-name="Tracciato 953" d="M110.817,49.178s.264-.073.264-.263a2.937,2.937,0,0,0-.072-.506.849.849,0,0,0-.168.337c0,.12-.024.432-.024.432" transform="translate(-72.445 -31.647)" fill="#008137" fill-rule="evenodd"/>
        <path id="Tracciato_954" data-name="Tracciato 954" d="M110.817,49.178s.264-.073.264-.263a2.937,2.937,0,0,0-.072-.506.849.849,0,0,0-.168.337C110.841,48.866,110.817,49.178,110.817,49.178Z" transform="translate(-72.445 -31.647)" fill="none" stroke="#141215" stroke-miterlimit="3.864" stroke-width="0.334"/>
        <path id="Tracciato_955" data-name="Tracciato 955" d="M110.1,49.157a1.11,1.11,0,0,0,0-.576.694.694,0,0,0-.215-.24s-.1.383-.024.5a3.045,3.045,0,0,0,.239.312" transform="translate(-71.804 -31.602)" fill="#008137" fill-rule="evenodd"/>
        <path id="Tracciato_956" data-name="Tracciato 956" d="M110.1,49.157a1.11,1.11,0,0,0,0-.576.694.694,0,0,0-.215-.24s-.1.383-.024.5A3.045,3.045,0,0,0,110.1,49.157Z" transform="translate(-71.804 -31.602)" fill="none" stroke="#141215" stroke-miterlimit="3.864" stroke-width="0.334"/>
        <path id="Tracciato_957" data-name="Tracciato 957" d="M109.483,50.022a2.186,2.186,0,0,0-.384-.167c-.169-.049-.217.143.047.263s.337-.1.337-.1" transform="translate(-71.231 -32.587)" fill="#008137" fill-rule="evenodd"/>
        <path id="Tracciato_958" data-name="Tracciato 958" d="M109.483,50.022a2.186,2.186,0,0,0-.384-.167c-.169-.049-.217.143.047.263S109.483,50.022,109.483,50.022Z" transform="translate(-71.231 -32.587)" fill="none" stroke="#141215" stroke-miterlimit="3.864" stroke-width="0.334"/>
        <path id="Tracciato_959" data-name="Tracciato 959" d="M113.154,47.392a.34.34,0,0,0,.215-.264.477.477,0,0,0-.1-.385s-.167.122-.167.265a2.563,2.563,0,0,0,.048.383" transform="translate(-73.941 -30.558)" fill="#008137" fill-rule="evenodd"/>
        <path id="Tracciato_960" data-name="Tracciato 960" d="M113.154,47.392a.34.34,0,0,0,.215-.264.477.477,0,0,0-.1-.385s-.167.122-.167.265A2.563,2.563,0,0,0,113.154,47.392Z" transform="translate(-73.941 -30.558)" fill="none" stroke="#141215" stroke-miterlimit="3.864" stroke-width="0.334"/>
        <path id="Tracciato_961" data-name="Tracciato 961" d="M112.484,49.392a.8.8,0,0,1,.288-.144l.432-.144a1.1,1.1,0,0,1-.385.36,1.875,1.875,0,0,1-.407.1Z" transform="translate(-73.488 -32.101)" fill="#008137" fill-rule="evenodd"/>
        <path id="Tracciato_962" data-name="Tracciato 962" d="M112.484,49.392a.8.8,0,0,1,.288-.144l.432-.144a1.1,1.1,0,0,1-.385.36,1.875,1.875,0,0,1-.407.1Z" transform="translate(-73.488 -32.101)" fill="none" stroke="#141215" stroke-miterlimit="3.864" stroke-width="0.334"/>
        <path id="Tracciato_963" data-name="Tracciato 963" d="M117.889,54.051a.953.953,0,0,0,.385-.265.586.586,0,0,0,.12-.312,1.069,1.069,0,0,0-.36.241.729.729,0,0,0-.145.337" transform="translate(-77.068 -34.957)" fill="#008137" fill-rule="evenodd"/>
        <path id="Tracciato_964" data-name="Tracciato 964" d="M117.889,54.051a.953.953,0,0,0,.385-.265.586.586,0,0,0,.12-.312,1.069,1.069,0,0,0-.36.241A.729.729,0,0,0,117.889,54.051Z" transform="translate(-77.068 -34.957)" fill="none" stroke="#141215" stroke-miterlimit="3.864" stroke-width="0.334"/>
        <path id="Tracciato_965" data-name="Tracciato 965" d="M119.419,59.55a.551.551,0,0,0,.384-.121.692.692,0,0,0,.192-.409,1.813,1.813,0,0,0-.336.216.818.818,0,0,0-.144.314Z" transform="translate(-78.068 -38.583)" fill="#008137" fill-rule="evenodd"/>
        <path id="Tracciato_966" data-name="Tracciato 966" d="M119.419,59.55a.551.551,0,0,0,.384-.121.692.692,0,0,0,.192-.409,1.813,1.813,0,0,0-.336.216.818.818,0,0,0-.144.314Z" transform="translate(-78.068 -38.583)" fill="none" stroke="#141215" stroke-miterlimit="3.864" stroke-width="0.334"/>
        <path id="Tracciato_967" data-name="Tracciato 967" d="M110.982,60.991a3.222,3.222,0,0,0-.025-.408,2.862,2.862,0,0,0-.073-.313,1.283,1.283,0,0,0-.143.506,1.134,1.134,0,0,0,.12.335Z" transform="translate(-72.393 -39.401)" fill="#008137" fill-rule="evenodd"/>
        <path id="Tracciato_968" data-name="Tracciato 968" d="M110.982,60.991a3.222,3.222,0,0,0-.025-.408,2.862,2.862,0,0,0-.073-.313,1.283,1.283,0,0,0-.143.506,1.134,1.134,0,0,0,.12.335Z" transform="translate(-72.393 -39.401)" fill="none" stroke="#141215" stroke-miterlimit="3.864" stroke-width="0.334"/>
        <path id="Tracciato_969" data-name="Tracciato 969" d="M112.013,60.435s.025-.121.049-.313a.848.848,0,0,0-.024-.336.387.387,0,0,0-.193.409c.048.287.168.192.168.192Z" transform="translate(-73.113 -39.084)" fill="#008137" fill-rule="evenodd"/>
        <path id="Tracciato_970" data-name="Tracciato 970" d="M112.013,60.435s.025-.121.049-.313a.848.848,0,0,0-.024-.336.387.387,0,0,0-.193.409c.048.287.168.192.168.192Z" transform="translate(-73.113 -39.084)" fill="none" stroke="#141215" stroke-miterlimit="3.864" stroke-width="0.334"/>
        <path id="Tracciato_971" data-name="Tracciato 971" d="M113.253,59.516s.216-.409.024-.313a.467.467,0,0,0-.239.241Z" transform="translate(-73.897 -38.694)" fill="#008137" fill-rule="evenodd"/>
        <path id="Tracciato_972" data-name="Tracciato 972" d="M113.253,59.516s.216-.409.024-.313a.467.467,0,0,0-.239.241Z" transform="translate(-73.897 -38.694)" fill="none" stroke="#141215" stroke-miterlimit="3.864" stroke-width="0.334"/>
        <path id="Tracciato_973" data-name="Tracciato 973" d="M112.878,55.936a1.768,1.768,0,0,0,.12-.48c-.024-.1-.12-.072-.216.168a.941.941,0,0,0-.05.479Z" transform="translate(-73.69 -36.219)" fill="#008137" fill-rule="evenodd"/>
        <path id="Tracciato_974" data-name="Tracciato 974" d="M112.878,55.936a1.768,1.768,0,0,0,.12-.48c-.024-.1-.12-.072-.216.168a.941.941,0,0,0-.05.479Z" transform="translate(-73.69 -36.219)" fill="none" stroke="#141215" stroke-miterlimit="3.864" stroke-width="0.334"/>
        <path id="Tracciato_975" data-name="Tracciato 975" d="M111.818,57.507v-.215s-.168.047-.168.191.168.072.168.072Z" transform="translate(-72.99 -37.454)" fill="#008137" fill-rule="evenodd"/>
        <path id="Tracciato_976" data-name="Tracciato 976" d="M111.818,57.507v-.215s-.168.047-.168.191.168.072.168.072Z" transform="translate(-72.99 -37.454)" fill="none" stroke="#141215" stroke-miterlimit="3.864" stroke-width="0.334"/>
        <line id="Linea_72" data-name="Linea 72" x1="0.433" transform="translate(34.288 19.429)" fill="none" stroke="#141215" stroke-miterlimit="3.864" stroke-width="0.334"/>
        <line id="Linea_73" data-name="Linea 73" x2="0.048" y2="0.337" transform="translate(35.249 19.573)" fill="none" stroke="#141215" stroke-miterlimit="3.864" stroke-width="0.334"/>
        <line id="Linea_74" data-name="Linea 74" x1="0.362" y2="0.216" transform="translate(35.897 19.021)" fill="none" stroke="#141215" stroke-miterlimit="3.864" stroke-width="0.334"/>
        <line id="Linea_75" data-name="Linea 75" x1="0.096" y2="0.48" transform="translate(36.258 18.541)" fill="none" stroke="#141215" stroke-miterlimit="3.864" stroke-width="0.334"/>
        <line id="Linea_76" data-name="Linea 76" x1="0.313" y2="0.12" transform="translate(36.81 19.79)" fill="none" stroke="#141215" stroke-miterlimit="3.864" stroke-width="0.334"/>
        <line id="Linea_77" data-name="Linea 77" x1="0.121" y2="0.36" transform="translate(37.362 17.291)" fill="none" stroke="#141215" stroke-miterlimit="3.864" stroke-width="0.334"/>
        <line id="Linea_78" data-name="Linea 78" x1="0.312" y1="0.121" transform="translate(38.036 19.093)" fill="none" stroke="#141215" stroke-miterlimit="3.864" stroke-width="0.334"/>
        <line id="Linea_79" data-name="Linea 79" y1="0.216" x2="0.289" transform="translate(38.732 17.82)" fill="none" stroke="#141215" stroke-miterlimit="3.864" stroke-width="0.334"/>
        <path id="Tracciato_977" data-name="Tracciato 977" d="M111.856,62.3a1.209,1.209,0,0,0,.385-.168.814.814,0,0,0,.24-.265,1.837,1.837,0,0,0-.5.145.816.816,0,0,0-.12.289" transform="translate(-73.124 -40.444)" fill="#008137" fill-rule="evenodd"/>
        <path id="Tracciato_978" data-name="Tracciato 978" d="M111.856,62.3a1.209,1.209,0,0,0,.385-.168.814.814,0,0,0,.24-.265,1.837,1.837,0,0,0-.5.145A.816.816,0,0,0,111.856,62.3Z" transform="translate(-73.124 -40.444)" fill="none" stroke="#141215" stroke-miterlimit="3.864" stroke-width="0.334"/>
        <path id="Tracciato_979" data-name="Tracciato 979" d="M114.346,55.747a.91.91,0,0,1-.264-.336,2.813,2.813,0,0,1-.145-.408.591.591,0,0,1,.337.238.943.943,0,0,1,.047.555Z" transform="translate(-74.485 -35.957)" fill="#008137" fill-rule="evenodd"/>
        <path id="Tracciato_980" data-name="Tracciato 980" d="M114.346,55.747a.91.91,0,0,1-.264-.336,2.813,2.813,0,0,1-.145-.408.591.591,0,0,1,.337.238.943.943,0,0,1,.047.555Z" transform="translate(-74.485 -35.957)" fill="none" stroke="#141215" stroke-miterlimit="3.864" stroke-width="0.334"/>
        <path id="Tracciato_981" data-name="Tracciato 981" d="M114.7,58.53a.974.974,0,0,0,.5-.1c.193-.118.5-.311.337-.311a3.144,3.144,0,0,0-.6.143Z" transform="translate(-74.983 -37.997)" fill="#008137" fill-rule="evenodd"/>
        <path id="Tracciato_982" data-name="Tracciato 982" d="M114.7,58.53a.974.974,0,0,0,.5-.1c.193-.118.5-.311.337-.311a3.144,3.144,0,0,0-.6.143Z" transform="translate(-74.983 -37.997)" fill="none" stroke="#141215" stroke-miterlimit="3.864" stroke-width="0.334"/>
        <path id="Tracciato_983" data-name="Tracciato 983" d="M114.1,53.489a.419.419,0,0,0-.289-.24c-.216-.048-.24.1-.048.262a.283.283,0,0,0,.385-.023Z" transform="translate(-74.284 -34.805)" fill="#008137" fill-rule="evenodd"/>
        <path id="Tracciato_984" data-name="Tracciato 984" d="M114.1,53.489a.419.419,0,0,0-.289-.24c-.216-.048-.24.1-.048.262a.283.283,0,0,0,.385-.023Z" transform="translate(-74.284 -34.805)" fill="none" stroke="#141215" stroke-miterlimit="3.864" stroke-width="0.334"/>
        <path id="Tracciato_985" data-name="Tracciato 985" d="M110.38,53.452s.1-.072.073-.289a.679.679,0,0,0-.1-.311l-.1.24Z" transform="translate(-72.081 -34.552)" fill="#008137" fill-rule="evenodd"/>
        <path id="Tracciato_986" data-name="Tracciato 986" d="M110.38,53.452s.1-.072.073-.289a.679.679,0,0,0-.1-.311l-.1.24Z" transform="translate(-72.081 -34.552)" fill="none" stroke="#141215" stroke-miterlimit="3.864" stroke-width="0.334"/>
        <path id="Tracciato_987" data-name="Tracciato 987" d="M111.3,53.46s-.312-.145-.194-.626.145.1.145.1Z" transform="translate(-72.618 -34.415)" fill="#008137" fill-rule="evenodd"/>
        <path id="Tracciato_988" data-name="Tracciato 988" d="M111.3,53.46s-.312-.145-.194-.626.145.1.145.1Z" transform="translate(-72.618 -34.415)" fill="none" stroke="#141215" stroke-miterlimit="3.864" stroke-width="0.334"/>
        <path id="Tracciato_989" data-name="Tracciato 989" d="M112.134,52.317s.168.049.36-.168a.844.844,0,0,0,.216-.408l-.336.193Z" transform="translate(-73.306 -33.825)" fill="#008137" fill-rule="evenodd"/>
        <path id="Tracciato_990" data-name="Tracciato 990" d="M112.134,52.317s.168.049.36-.168a.844.844,0,0,0,.216-.408l-.336.193Z" transform="translate(-73.306 -33.825)" fill="none" stroke="#141215" stroke-miterlimit="3.864" stroke-width="0.334"/>
        <path id="Tracciato_991" data-name="Tracciato 991" d="M114.73,52.338a1.1,1.1,0,0,0,0-.313.263.263,0,0,0-.143-.215l-.024.289Z" transform="translate(-74.893 -33.87)" fill="#008137" fill-rule="evenodd"/>
        <path id="Tracciato_992" data-name="Tracciato 992" d="M114.73,52.338a1.1,1.1,0,0,0,0-.313.263.263,0,0,0-.143-.215l-.024.289Z" transform="translate(-74.893 -33.87)" fill="none" stroke="#141215" stroke-miterlimit="3.864" stroke-width="0.334"/>
        <path id="Tracciato_993" data-name="Tracciato 993" d="M116.018,57.039s0,.1.288.12a.624.624,0,0,0,.433-.1,1.266,1.266,0,0,0-.336-.121,2.163,2.163,0,0,0-.385.1" transform="translate(-75.845 -37.225)" fill="#008137" fill-rule="evenodd"/>
        <path id="Tracciato_994" data-name="Tracciato 994" d="M116.018,57.039s0,.1.288.12a.624.624,0,0,0,.433-.1,1.266,1.266,0,0,0-.336-.121A2.163,2.163,0,0,0,116.018,57.039Z" transform="translate(-75.845 -37.225)" fill="none" stroke="#141215" stroke-miterlimit="3.864" stroke-width="0.334"/>
        <path id="Tracciato_995" data-name="Tracciato 995" d="M115.307,60.991a1.7,1.7,0,0,0,.1-.384c0-.12-.024-.337-.024-.337s-.193.194-.193.337a1.173,1.173,0,0,0,.12.384" transform="translate(-75.301 -39.401)" fill="#008137" fill-rule="evenodd"/>
        <path id="Tracciato_996" data-name="Tracciato 996" d="M115.307,60.991a1.7,1.7,0,0,0,.1-.384c0-.12-.024-.337-.024-.337s-.193.194-.193.337A1.173,1.173,0,0,0,115.307,60.991Z" transform="translate(-75.301 -39.401)" fill="none" stroke="#141215" stroke-miterlimit="3.864" stroke-width="0.334"/>
        <path id="Tracciato_997" data-name="Tracciato 997" d="M117.821,60.2a2.343,2.343,0,0,0,.265-.313c.072-.12.168-.313.168-.313a1.253,1.253,0,0,0-.312.216,1.6,1.6,0,0,0-.12.457Z" transform="translate(-77.024 -38.948)" fill="#008137" fill-rule="evenodd"/>
        <path id="Tracciato_998" data-name="Tracciato 998" d="M117.821,60.2a2.343,2.343,0,0,0,.265-.313c.072-.12.168-.313.168-.313a1.253,1.253,0,0,0-.312.216,1.6,1.6,0,0,0-.12.457Z" transform="translate(-77.024 -38.948)" fill="none" stroke="#141215" stroke-miterlimit="3.864" stroke-width="0.334"/>
        <path id="Tracciato_999" data-name="Tracciato 999" d="M114.082,62.367l-.048-.361a.594.594,0,0,0-.1.265,1.179,1.179,0,0,0,.072.312Z" transform="translate(-74.485 -40.535)" fill="#008137" fill-rule="evenodd"/>
        <path id="Tracciato_1000" data-name="Tracciato 1000" d="M114.082,62.367l-.048-.361a.594.594,0,0,0-.1.265,1.179,1.179,0,0,0,.072.312Z" transform="translate(-74.485 -40.535)" fill="none" stroke="#141215" stroke-miterlimit="3.864" stroke-width="0.334"/>
        <path id="Tracciato_1001" data-name="Tracciato 1001" d="M116.546,62.213a2.977,2.977,0,0,1,.288.145,1.493,1.493,0,0,1,.24.192,2.279,2.279,0,0,1-.505-.17c-.168-.095-.1-.168-.1-.168Z" transform="translate(-76.133 -40.671)" fill="#008137" fill-rule="evenodd"/>
        <path id="Tracciato_1002" data-name="Tracciato 1002" d="M116.546,62.213a2.977,2.977,0,0,1,.288.145,1.493,1.493,0,0,1,.24.192,2.279,2.279,0,0,1-.505-.17c-.168-.095-.1-.168-.1-.168Z" transform="translate(-76.133 -40.671)" fill="none" stroke="#141215" stroke-miterlimit="3.864" stroke-width="0.334"/>
        <path id="Tracciato_1003" data-name="Tracciato 1003" d="M113.8,64.8a2.5,2.5,0,0,1,.359.143.882.882,0,0,0,.361.1s-.12-.241-.241-.265a1.612,1.612,0,0,0-.432.048Z" transform="translate(-74.395 -42.341)" fill="#008137" fill-rule="evenodd"/>
        <path id="Tracciato_1004" data-name="Tracciato 1004" d="M113.8,64.8a2.5,2.5,0,0,1,.359.143.882.882,0,0,0,.361.1s-.12-.241-.241-.265a1.612,1.612,0,0,0-.432.048Z" transform="translate(-74.395 -42.341)" fill="none" stroke="#141215" stroke-miterlimit="3.864" stroke-width="0.334"/>
        <path id="Tracciato_1005" data-name="Tracciato 1005" d="M116.071,64.366s-.072.216.193.216.48-.024.335-.072-.48-.144-.48-.144Z" transform="translate(-75.874 -42.078)" fill="#008137" fill-rule="evenodd"/>
        <path id="Tracciato_1006" data-name="Tracciato 1006" d="M116.071,64.366s-.072.216.193.216.48-.024.335-.072-.48-.144-.48-.144Z" transform="translate(-75.874 -42.078)" fill="none" stroke="#141215" stroke-miterlimit="3.864" stroke-width="0.334"/>
        <path id="Tracciato_1007" data-name="Tracciato 1007" d="M117.614,63.581a.887.887,0,0,0,.313.12.343.343,0,0,0,.335-.1,1.363,1.363,0,0,0-.358-.145.69.69,0,0,0-.218.05Z" transform="translate(-76.888 -41.485)" fill="#008137" fill-rule="evenodd"/>
        <path id="Tracciato_1008" data-name="Tracciato 1008" d="M117.614,63.581a.887.887,0,0,0,.313.12.343.343,0,0,0,.335-.1,1.363,1.363,0,0,0-.358-.145.69.69,0,0,0-.218.05Z" transform="translate(-76.888 -41.485)" fill="none" stroke="#141215" stroke-miterlimit="3.864" stroke-width="0.334"/>
        <path id="Tracciato_1009" data-name="Tracciato 1009" d="M116.377,61v-.313a.531.531,0,0,0-.194.241,1.833,1.833,0,0,0-.1.264l.264-.241Z" transform="translate(-75.891 -39.674)" fill="#008137" fill-rule="evenodd"/>
        <path id="Tracciato_1010" data-name="Tracciato 1010" d="M116.377,61v-.313a.531.531,0,0,0-.194.241,1.833,1.833,0,0,0-.1.264l.264-.241Z" transform="translate(-75.891 -39.674)" fill="none" stroke="#141215" stroke-miterlimit="3.864" stroke-width="0.334"/>
        <path id="Tracciato_1011" data-name="Tracciato 1011" d="M115.169,63.518a.772.772,0,0,0-.575-.049c-.337.1-.385.1-.048.12a2.991,2.991,0,0,0,.7-.047Z" transform="translate(-74.732 -41.471)" fill="#008137" fill-rule="evenodd"/>
        <path id="Tracciato_1012" data-name="Tracciato 1012" d="M115.169,63.518a.772.772,0,0,0-.575-.049c-.337.1-.385.1-.048.12a2.991,2.991,0,0,0,.7-.047Z" transform="translate(-74.732 -41.471)" fill="none" stroke="#141215" stroke-miterlimit="3.864" stroke-width="0.334"/>
        <path id="Tracciato_1013" data-name="Tracciato 1013" d="M117.086,54.487a1.388,1.388,0,0,0,.144-.287c.047-.144,0-.289-.1-.144a2.055,2.055,0,0,0-.145.6Z" transform="translate(-76.48 -35.299)" fill="#008137" fill-rule="evenodd"/>
        <path id="Tracciato_1014" data-name="Tracciato 1014" d="M117.086,54.487a1.388,1.388,0,0,0,.144-.287c.047-.144,0-.289-.1-.144a2.055,2.055,0,0,0-.145.6Z" transform="translate(-76.48 -35.299)" fill="none" stroke="#141215" stroke-miterlimit="3.864" stroke-width="0.334"/>
        <line id="Linea_80" data-name="Linea 80" y1="0.168" x2="0.264" transform="translate(39.933 18.78)" fill="none" stroke="#141215" stroke-miterlimit="3.864" stroke-width="0.334"/>
        <line id="Linea_81" data-name="Linea 81" x2="0.312" y2="0.218" transform="translate(39.501 19.957)" fill="none" stroke="#141215" stroke-miterlimit="3.864" stroke-width="0.334"/>
        <line id="Linea_82" data-name="Linea 82" x2="0.265" y2="0.097" transform="translate(40.63 19.332)" fill="none" stroke="#141215" stroke-miterlimit="3.864" stroke-width="0.334"/>
        <line id="Linea_83" data-name="Linea 83" y1="0.289" x2="0.024" transform="translate(39.069 22.167)" fill="none" stroke="#141215" stroke-miterlimit="3.864" stroke-width="0.334"/>
        <line id="Linea_84" data-name="Linea 84" x2="0.265" y2="0.12" transform="translate(41.027 21.256)" fill="none" stroke="#141215" stroke-miterlimit="3.864" stroke-width="0.334"/>
        <line id="Linea_85" data-name="Linea 85" x1="0.193" y2="0.169" transform="translate(34.936 22.167)" fill="none" stroke="#141215" stroke-miterlimit="3.864" stroke-width="0.334"/>
        <line id="Linea_86" data-name="Linea 86" x1="0.071" y1="0.312" transform="translate(38.925 16.979)" fill="none" stroke="#141215" stroke-miterlimit="3.864" stroke-width="0.334"/>
        <line id="Linea_87" data-name="Linea 87" x2="0.336" y2="0.12" transform="translate(39.501 20.775)" fill="none" stroke="#141215" stroke-miterlimit="3.864" stroke-width="0.334"/>
        <line id="Linea_88" data-name="Linea 88" y1="0.24" x2="0.072" transform="translate(40.678 21.832)" fill="none" stroke="#141215" stroke-miterlimit="3.864" stroke-width="0.334"/>
        <path id="Tracciato_1015" data-name="Tracciato 1015" d="M87.076,2.508s-.576-.313.1-.841S91.736.057,94.883.177s6.859.63,8,1.634a.664.664,0,0,1,.1.936c-.167.193-.167.216-.167.216l.312.624-.481.313a3.115,3.115,0,0,0-.072.434c0,.12.36.48-.192.744a25.078,25.078,0,0,1-7.446,1.056,25.631,25.631,0,0,1-6.919-.864s-.793-.264-.889-.5.264-.36.289-.457S87.268,4,87.268,4l-.457-.384.36-.6Z" transform="translate(-56.751 -0.109)" fill="#fa0" fill-rule="evenodd"/>
        <path id="Tracciato_1016" data-name="Tracciato 1016" d="M87.076,2.508s-.576-.313.1-.841S91.736.057,94.883.177s6.859.63,8,1.634a.664.664,0,0,1,.1.936c-.167.193-.167.216-.167.216l.312.624-.481.313a3.115,3.115,0,0,0-.072.434c0,.12.36.48-.192.744a25.078,25.078,0,0,1-7.446,1.056,25.631,25.631,0,0,1-6.919-.864s-.793-.264-.889-.5.264-.36.289-.457S87.268,4,87.268,4l-.457-.384.36-.6Z" transform="translate(-56.751 -0.109)" fill="none" stroke="#141215" stroke-miterlimit="3.864" stroke-width="0.334"/>
        <path id="Tracciato_1017" data-name="Tracciato 1017" d="M90.94,11.328a21.214,21.214,0,0,1,6.246-.792,25.91,25.91,0,0,1,6.246.817s1.614.189.048.576a26.466,26.466,0,0,1-6.245.792,41.481,41.481,0,0,1-6.2-.721s-1.682-.287-.1-.672" transform="translate(-59.006 -6.888)" fill="#fff" fill-rule="evenodd"/>
        <path id="Tracciato_1018" data-name="Tracciato 1018" d="M90.94,11.328a21.214,21.214,0,0,1,6.246-.792,25.91,25.91,0,0,1,6.246.817s1.614.189.048.576a26.466,26.466,0,0,1-6.245.792,41.481,41.481,0,0,1-6.2-.721S89.354,11.713,90.94,11.328Z" transform="translate(-59.006 -6.888)" fill="none" stroke="#141215" stroke-miterlimit="3.864" stroke-width="0.334"/>
        <path id="Tracciato_1019" data-name="Tracciato 1019" d="M87.577,3.662s1.8-1.73,7.831-1.73,8.143,1.8,8.143,1.8" transform="translate(-57.252 -1.263)" fill="none" stroke="#141215" stroke-miterlimit="3.864" stroke-width="0.334"/>
        <path id="Tracciato_1020" data-name="Tracciato 1020" d="M87.714,4.193s1.753-1.7,7.784-1.7,8.07,1.729,8.07,1.729" transform="translate(-57.342 -1.627)" fill="none" stroke="#141215" stroke-miterlimit="3.864" stroke-width="0.334"/>
        <path id="Tracciato_1021" data-name="Tracciato 1021" d="M88.548,9.773s2.425-1.223,7.518-1.248A20.318,20.318,0,0,1,103.729,9.8" transform="translate(-57.887 -5.573)" fill="none" stroke="#141215" stroke-miterlimit="3.864" stroke-width="0.334"/>
        <path id="Tracciato_1022" data-name="Tracciato 1022" d="M87.853,10.4a19.427,19.427,0,0,1,7.759-1.321,20.372,20.372,0,0,1,7.663,1.278" transform="translate(-57.433 -5.935)" fill="none" stroke="#141215" stroke-miterlimit="3.864" stroke-width="0.334"/>
        <path id="Tracciato_1023" data-name="Tracciato 1023" d="M92.642,5.926a.18.18,0,1,1,.179.18A.179.179,0,0,1,92.642,5.926Z" transform="translate(-60.563 -3.756)" fill="none" stroke="#141215" stroke-miterlimit="3.864" stroke-width="0.334"/>
        <path id="Tracciato_1024" data-name="Tracciato 1024" d="M102.144,3.915a.18.18,0,1,1,.18.179A.181.181,0,0,1,102.144,3.915Z" transform="translate(-66.775 -2.442)" fill="none" stroke="#141215" stroke-miterlimit="3.864" stroke-width="0.334"/>
        <path id="Tracciato_1025" data-name="Tracciato 1025" d="M102.558,7.317a.181.181,0,1,1,.18.179A.181.181,0,0,1,102.558,7.317Z" transform="translate(-67.046 -4.665)" fill="none" stroke="#141215" stroke-miterlimit="3.864" stroke-width="0.334"/>
        <path id="Tracciato_1026" data-name="Tracciato 1026" d="M93.159,8.981a.18.18,0,1,1,.18.179A.18.18,0,0,1,93.159,8.981Z" transform="translate(-60.901 -5.753)" fill="none" stroke="#141215" stroke-miterlimit="3.864" stroke-width="0.334"/>
        <path id="Tracciato_1027" data-name="Tracciato 1027" d="M117.231,4.054a.181.181,0,1,1,.18.18A.181.181,0,0,1,117.231,4.054Z" transform="translate(-76.638 -2.533)" fill="none" stroke="#141215" stroke-miterlimit="3.864" stroke-width="0.334"/>
        <path id="Tracciato_1028" data-name="Tracciato 1028" d="M117.372,7.245a.18.18,0,1,1,.179.18A.18.18,0,0,1,117.372,7.245Z" transform="translate(-76.73 -4.618)" fill="none" stroke="#141215" stroke-miterlimit="3.864" stroke-width="0.334"/>
        <path id="Tracciato_1029" data-name="Tracciato 1029" d="M126.805,8.705a.18.18,0,1,1,.18.181A.179.179,0,0,1,126.805,8.705Z" transform="translate(-82.897 -5.574)" fill="none" stroke="#141215" stroke-miterlimit="3.864" stroke-width="0.334"/>
        <path id="Tracciato_1030" data-name="Tracciato 1030" d="M127.43,5.926a.18.18,0,1,1,.18.18A.18.18,0,0,1,127.43,5.926Z" transform="translate(-83.305 -3.756)" fill="none" stroke="#141215" stroke-miterlimit="3.864" stroke-width="0.334"/>
        <path id="Tracciato_1031" data-name="Tracciato 1031" d="M96.323,6.157c-.021-.2.285-.39.679-.433s.738.085.757.283-.284.39-.681.434-.734-.085-.756-.283" transform="translate(-62.969 -3.737)" fill="#008137"/>
        <path id="Tracciato_1032" data-name="Tracciato 1032" d="M96.323,6.157c-.021-.2.285-.39.679-.433s.738.085.757.283-.284.39-.681.434S96.344,6.355,96.323,6.157Z" transform="translate(-62.969 -3.737)" fill="none" stroke="#141215" stroke-miterlimit="3.864" stroke-width="0.334"/>
        <path id="Tracciato_1033" data-name="Tracciato 1033" d="M95.828,5.917c-.028-.267.339-.523.821-.573s.894.124.922.39-.339.521-.82.573S95.856,6.183,95.828,5.917Z" transform="translate(-62.645 -3.488)" fill="none" stroke="#141215" stroke-miterlimit="3.864" stroke-width="0.334"/>
        <path id="Tracciato_1034" data-name="Tracciato 1034" d="M120.309,5.795c.027-.2.369-.311.766-.255s.693.26.666.456-.371.312-.766.254-.693-.258-.665-.455" transform="translate(-78.649 -3.612)" fill="#008137"/>
        <path id="Tracciato_1035" data-name="Tracciato 1035" d="M120.309,5.795c.027-.2.369-.311.766-.255s.693.26.666.456-.371.312-.766.254S120.281,5.992,120.309,5.795Z" transform="translate(-78.649 -3.612)" fill="none" stroke="#141215" stroke-miterlimit="3.864" stroke-width="0.334"/>
        <path id="Tracciato_1036" data-name="Tracciato 1036" d="M119.824,5.506c.036-.263.456-.423.935-.357s.837.339.8.6-.455.426-.934.357S119.787,5.771,119.824,5.506Z" transform="translate(-78.331 -3.356)" fill="none" stroke="#141215" stroke-miterlimit="3.864" stroke-width="0.334"/>
        <path id="Tracciato_1037" data-name="Tracciato 1037" d="M106.444,4.133l1.274-.745,1.273.793-1.225.6Z" transform="translate(-69.586 -2.215)" fill="#007abf" fill-rule="evenodd"/>
        <path id="Tracciato_1038" data-name="Tracciato 1038" d="M106.444,4.133l1.274-.745,1.273.793-1.225.6Z" transform="translate(-69.586 -2.215)" fill="none" stroke="#141215" stroke-miterlimit="3.864" stroke-width="0.334"/>
        <path id="Tracciato_1039" data-name="Tracciato 1039" d="M105.673,3.868l1.541-.9,1.539.958-1.483.727Z" transform="translate(-69.082 -1.94)" fill="none" stroke="#141215" stroke-miterlimit="3.864" stroke-width="0.334"/>
        <path id="Tracciato_1040" data-name="Tracciato 1040" d="M87.853,8.174,89.1,8.2,87.972,9.3" transform="translate(-57.432 -5.344)" fill="none" stroke="#141215" stroke-miterlimit="3.864" stroke-width="0.334"/>
        <path id="Tracciato_1041" data-name="Tracciato 1041" d="M131,7.9l-1.1.337.889.893" transform="translate(-84.916 -5.164)" fill="none" stroke="#141215" stroke-miterlimit="3.864" stroke-width="0.334"/>
        <path id="Tracciato_1042" data-name="Tracciato 1042" d="M87.124,8.45l.985.026-.841.887-.456-.336Z" transform="translate(-56.752 -5.524)" fill="#d80012" fill-rule="evenodd"/>
        <path id="Tracciato_1043" data-name="Tracciato 1043" d="M87.124,8.45l.985.026-.841.887-.456-.336Z" transform="translate(-56.752 -5.524)" fill="none" stroke="#141215" stroke-miterlimit="3.864" stroke-width="0.334"/>
        <path id="Tracciato_1044" data-name="Tracciato 1044" d="M131.517,8.243l-.794.241.625.7.481-.313Z" transform="translate(-85.458 -5.389)" fill="#d80012" fill-rule="evenodd"/>
        <path id="Tracciato_1045" data-name="Tracciato 1045" d="M131.517,8.243l-.794.241.625.7.481-.313Z" transform="translate(-85.458 -5.389)" fill="none" stroke="#141215" stroke-miterlimit="3.864" stroke-width="0.334"/>
        <rect id="Rettangolo_426" data-name="Rettangolo 426" width="0.24" height="0.336" transform="translate(38.036 1.533)" fill="#fff"/>
        <rect id="Rettangolo_427" data-name="Rettangolo 427" width="0.24" height="0.336" transform="translate(38.036 1.533)" fill="none" stroke="#141215" stroke-miterlimit="3.864" stroke-width="0.334"/>
        <path id="Tracciato_1046" data-name="Tracciato 1046" d="M109.124,5.012a.108.108,0,0,0,.076-.025.118.118,0,0,0,.02-.081V4.4c0-.045-.007-.071-.02-.083a.167.167,0,0,0-.076-.024V4.262h.37a.432.432,0,0,1,.225.047.175.175,0,0,1,.076.164.2.2,0,0,1-.029.107.205.205,0,0,1-.1.079.369.369,0,0,1-.1.027c-.036,0-.087,0-.154,0v.215a.12.12,0,0,0,.019.084.141.141,0,0,0,.08.022V5.04h-.383Z" transform="translate(-71.338 -2.786)" fill="#fa0" fill-rule="evenodd"/>
        <path id="Tracciato_1047" data-name="Tracciato 1047" d="M109.124,5.012a.108.108,0,0,0,.076-.025.118.118,0,0,0,.02-.081V4.4c0-.045-.007-.071-.02-.083a.167.167,0,0,0-.076-.024V4.262h.37a.432.432,0,0,1,.225.047.175.175,0,0,1,.076.164.2.2,0,0,1-.029.107.205.205,0,0,1-.1.079.369.369,0,0,1-.1.027c-.036,0-.087,0-.154,0v.215a.12.12,0,0,0,.019.084.141.141,0,0,0,.08.022V5.04h-.383Z" transform="translate(-71.338 -2.786)" fill="none" stroke="#141215" stroke-miterlimit="3.864" stroke-width="0.334"/>
        <path id="Tracciato_1048" data-name="Tracciato 1048" d="M110.08,4.7c.037-.023.054-.073.055-.15a.255.255,0,0,0-.028-.128.108.108,0,0,0-.1-.048.11.11,0,0,0-.049.009.031.031,0,0,0-.014.03v.311a.3.3,0,0,0,.136-.024" transform="translate(-71.874 -2.859)" fill="#fa0" fill-rule="evenodd"/>
        <path id="Tracciato_1049" data-name="Tracciato 1049" d="M110.08,4.7c.037-.023.054-.073.055-.15a.255.255,0,0,0-.028-.128.108.108,0,0,0-.1-.048.11.11,0,0,0-.049.009.031.031,0,0,0-.014.03v.311A.3.3,0,0,0,110.08,4.7Z" transform="translate(-71.874 -2.859)" fill="none" stroke="#141215" stroke-miterlimit="3.864" stroke-width="0.334"/>
        <path id="Tracciato_1050" data-name="Tracciato 1050" d="M120.4,28.953a.877.877,0,1,1,.877.877.877.877,0,0,1-.877-.877" transform="translate(-78.712 -18.355)" fill="#008137"/>
        <path id="Tracciato_1051" data-name="Tracciato 1051" d="M120.4,28.953a.877.877,0,1,1,.877.877A.877.877,0,0,1,120.4,28.953Z" transform="translate(-78.712 -18.355)" fill="none" stroke="#141215" stroke-miterlimit="3.864" stroke-width="0.334"/>
      </g>
    </g>
  </g>
</svg>
