<svg xmlns="http://www.w3.org/2000/svg" xmlns:xlink="http://www.w3.org/1999/xlink" width="174" height="50" viewBox="0 0 174 50">
  <defs>
    <linearGradient id="linear-gradient" x1="-0.1" y1="5.956" x2="-0.088" y2="5.956" gradientUnits="objectBoundingBox">
      <stop offset="0" stop-color="#036"/>
      <stop offset="0.162" stop-color="#1c2b57"/>
      <stop offset="0.513" stop-color="#631a34"/>
      <stop offset="0.982" stop-color="#c00"/>
      <stop offset="1" stop-color="#c00"/>
    </linearGradient>
    <linearGradient id="linear-gradient-2" x1="-0.059" y1="1.346" x2="-0.053" y2="1.346" xlink:href="#linear-gradient"/>
    <linearGradient id="linear-gradient-3" x1="-1.045" y1="1.346" x2="-1.039" y2="1.346" xlink:href="#linear-gradient"/>
    <linearGradient id="linear-gradient-4" x1="-0.033" y1="50.949" x2="-0.029" y2="50.949" xlink:href="#linear-gradient"/>
    <linearGradient id="linear-gradient-5" x1="-3.023" y1="1.545" x2="-2.642" y2="1.545" xlink:href="#linear-gradient"/>
    <linearGradient id="linear-gradient-6" x1="-1.067" y1="4.084" x2="-1.061" y2="4.084" xlink:href="#linear-gradient"/>
    <linearGradient id="linear-gradient-7" x1="-3.155" y1="6.188" x2="-3.143" y2="6.188" xlink:href="#linear-gradient"/>
    <linearGradient id="linear-gradient-8" x1="-1.065" y1="1.086" x2="-1.058" y2="1.086" xlink:href="#linear-gradient"/>
    <clipPath id="clip-path">
      <path id="Tracciato_742" data-name="Tracciato 742" d="M329.185,96.513a1.108,1.108,0,1,0,1.108-1.108,1.108,1.108,0,0,0-1.108,1.108" transform="translate(-329.185 -95.405)" fill="none"/>
    </clipPath>
    <linearGradient id="linear-gradient-9" x1="-18.443" y1="16.992" x2="-18.387" y2="16.992" xlink:href="#linear-gradient"/>
    <clipPath id="clip-path-2">
      <path id="Tracciato_743" data-name="Tracciato 743" d="M165.2,381.97a1.108,1.108,0,1,0,1.108-1.108,1.108,1.108,0,0,0-1.108,1.108" transform="translate(-165.196 -380.862)" fill="none"/>
    </clipPath>
    <linearGradient id="linear-gradient-10" x1="-9.255" y1="1" x2="-9.199" y2="1" xlink:href="#linear-gradient"/>
    <clipPath id="clip-path-3">
      <path id="Tracciato_744" data-name="Tracciato 744" d="M.718,95.529a1.107,1.107,0,1,0,.39-.071,1.108,1.108,0,0,0-.39.071" transform="translate(0 -95.458)" fill="none"/>
    </clipPath>
    <linearGradient id="linear-gradient-11" x1="0.151" y1="12.293" x2="0.19" y2="12.293" xlink:href="#linear-gradient"/>
    <clipPath id="clip-path-4">
      <path id="Tracciato_745" data-name="Tracciato 745" d="M41.2,79.215a.554.554,0,1,0,.554-.554.554.554,0,0,0-.554.554" transform="translate(-41.196 -78.661)" fill="none"/>
    </clipPath>
    <linearGradient id="linear-gradient-12" x1="-4.616" y1="35.856" x2="-4.504" y2="35.856" xlink:href="#linear-gradient"/>
    <clipPath id="clip-path-5">
      <path id="Tracciato_746" data-name="Tracciato 746" d="M72.255,61.3a.554.554,0,1,0,.554-.554.554.554,0,0,0-.554.554" transform="translate(-72.255 -60.746)" fill="none"/>
    </clipPath>
    <linearGradient id="linear-gradient-13" x1="-8.097" y1="37.867" x2="-7.985" y2="37.867" xlink:href="#linear-gradient"/>
    <clipPath id="clip-path-6">
      <path id="Tracciato_747" data-name="Tracciato 747" d="M103.516,43.458a.554.554,0,1,0,.554-.554.554.554,0,0,0-.554.554" transform="translate(-103.516 -42.904)" fill="none"/>
    </clipPath>
    <linearGradient id="linear-gradient-14" x1="-11.598" y1="39.866" x2="-11.486" y2="39.866" xlink:href="#linear-gradient"/>
    <clipPath id="clip-path-7">
      <path id="Tracciato_748" data-name="Tracciato 748" d="M134.153,25.543a.554.554,0,1,0,.554-.554.554.554,0,0,0-.554.554" transform="translate(-134.153 -24.989)" fill="none"/>
    </clipPath>
    <linearGradient id="linear-gradient-15" x1="-15.033" y1="41.879" x2="-14.921" y2="41.879" xlink:href="#linear-gradient"/>
    <clipPath id="clip-path-8">
      <path id="Tracciato_749" data-name="Tracciato 749" d="M334.77,247.44a.553.553,0,1,0,.5-.319.554.554,0,0,0-.5.319" transform="translate(-334.717 -247.121)" fill="none"/>
    </clipPath>
    <linearGradient id="linear-gradient-16" x1="-32.845" y1="15.871" x2="-32.746" y2="15.871" xlink:href="#linear-gradient"/>
    <clipPath id="clip-path-9">
      <path id="Tracciato_750" data-name="Tracciato 750" d="M334.77,210.909a.553.553,0,1,0,.5-.319.554.554,0,0,0-.5.319" transform="translate(-334.717 -210.59)" fill="none"/>
    </clipPath>
    <linearGradient id="linear-gradient-17" x1="-32.845" y1="19.697" x2="-32.746" y2="19.697" xlink:href="#linear-gradient"/>
    <clipPath id="clip-path-10">
      <path id="Tracciato_751" data-name="Tracciato 751" d="M334.77,174.547a.553.553,0,1,0,.5-.32.554.554,0,0,0-.5.32" transform="translate(-334.717 -174.227)" fill="none"/>
    </clipPath>
    <linearGradient id="linear-gradient-18" x1="-32.845" y1="23.503" x2="-32.746" y2="23.503" xlink:href="#linear-gradient"/>
    <clipPath id="clip-path-11">
      <path id="Tracciato_752" data-name="Tracciato 752" d="M334.77,140.071a.553.553,0,1,0,.5-.319.554.554,0,0,0-.5.319" transform="translate(-334.717 -139.752)" fill="none"/>
    </clipPath>
    <linearGradient id="linear-gradient-19" x1="-32.845" y1="27.115" x2="-32.746" y2="27.115" xlink:href="#linear-gradient"/>
    <clipPath id="clip-path-12">
      <path id="Tracciato_753" data-name="Tracciato 753" d="M128.625,112.714a.43.43,0,0,1-.263.076c-.054-.017-.12.025-.16.1-.078.146-.3.185-.548.093-.138-.052-.176-.039-.309.1-.317.339-.389.365-1.162.414-.548.035-.735.027-.762-.032-.02-.043-.118-.072-.218-.065-.155.011-.189-.014-.231-.167-.037-.135-.072-.168-.142-.134a1.8,1.8,0,0,1-.311.092c-.174.037-.227.082-.265.222-.064.237-.25.246-.363.018-.1-.2-.139-.211-.228-.044a.241.241,0,0,1-.144.13c-.043,0-.131.142-.195.308a.582.582,0,0,0,.217.808c.212.175.244.183.4.107.124-.062.184-.067.238-.019a.293.293,0,0,0,.185.055.73.73,0,0,1,.546.38c.078.156.115.173.34.157a.357.357,0,0,1,.4.175c.137.174.186.193.487.193a1.053,1.053,0,0,1,.955.436c.137.225.137.225.567.225a.9.9,0,0,1,.542.1c.206.18.266.112.239-.27-.023-.331-.014-.36.121-.4a.2.2,0,0,0,0-.384c-.127-.057-.182-.227-.076-.234s.055-.159-.078-.264a.358.358,0,0,1-.035-.525.334.334,0,0,0,.061-.312c-.039-.119-.014-.184.125-.325a.663.663,0,0,0,.17-.227.668.668,0,0,1,.1-.218,1.141,1.141,0,0,0,.122-.287,2.181,2.181,0,0,1,.057-.223c.029-.087-.035-.135-.134-.135a.5.5,0,0,0-.248.078m-12.059-6.337a1.142,1.142,0,0,0-.421.4c-.1.241-.075.217-.356.3a.755.755,0,0,1-.453.014c-.235-.067-.274-.195-.109-.358s.132-.244-.059-.209c-.214.04-.358.355-.206.451.088.055.087.069,0,.134-.072.052-.095.15-.081.344.017.239.039.278.186.327.182.061.216.144.327.782.047.272.047.414,0,.481-.081.113-.021.273.1.265.164-.011.167.173.007.43-.148.237-.158.3-.126.756.02.292.01.5-.025.5-.1.007-.038.482.072.515s.212-.1.153-.183c-.018-.025,0-.048.03-.05s.069.075.075.171c.014.2.108.276.216.173.055-.053.1-.049.155.014.1.108.1.108.334-.057a.319.319,0,0,0,.176-.36c-.028-.4.193-.494.493-.221.222.2.344.206.33.013a.2.2,0,0,1,.081-.185.128.128,0,0,0,.063-.146.237.237,0,0,1,.068-.2c.078-.078.084-.143.033-.337a1.434,1.434,0,0,1,.035-.7c.092-.431.092-.474-.005-.594-.138-.171-.119-.32.078-.61a.476.476,0,0,0,.108-.487c-.123-.552-.134-.573-.285-.562-.079.006-.146-.017-.148-.05s.049-.063.115-.068c.087-.006.116-.048.109-.158s-.042-.147-.129-.141a.107.107,0,0,1-.125-.081.905.905,0,0,0-.238-.313l-.232-.224Zm4.545-14.34c-.1.127-.157.151-.225.1s-.138-.039-.276.029-.206.076-.264.026a.637.637,0,0,0-.342-.048c-.247.017-.27.034-.322.238-.086.336-.2.413-.384.262a.553.553,0,0,0-.416-.106l-.263.018.022.31c.025.361-.033.426-.3.336-.178-.059-.208-.05-.347.109l-.152.174.182.236c.164.214.186.313.068.321-.023,0-.081-.069-.129-.157-.077-.142-.112-.154-.318-.107a3.615,3.615,0,0,0-.37.1c-.126.047-.14.031-.154-.175s-.031-.226-.2-.214-.187.045-.24.3a.747.747,0,0,1-.231.43c-.149.123-.168.18-.149.455.015.216,0,.309-.055.3-.133-.034-.2-.352-.121-.544.057-.133.057-.193,0-.243-.112-.1-.183-.078-.341.092l-.14.151-.131-.148a.409.409,0,0,1-.108-.357c.018-.16-.006-.229-.1-.291-.175-.114-.283-.094-.273.05a.244.244,0,0,1-.11.2.612.612,0,0,0-.176.33c-.073.324-.346.548-.566.465a.644.644,0,0,0-.426.036,2.916,2.916,0,0,1-.584.112.545.545,0,0,0-.5.249l-.193.228.282.33c.272.318.4.706.243.717a.582.582,0,0,0-.215.176c-.131.15-.183.168-.429.149l-.28-.022.016.223c.011.16.048.23.132.251a.543.543,0,0,1,.237.24c.066.116.152.209.192.207.106-.007.052.435-.065.533-.086.072-.07.13.149.566l.245.486.439.018c.529.021.6.067.463.306a1.4,1.4,0,0,0-.133.391l-.032.211.373-.026a1.306,1.306,0,0,0,.994-.5c.064-.1.244-.331.4-.524.276-.338.295-.35.545-.327a2.232,2.232,0,0,1,.655.233l.667.353a3.308,3.308,0,0,0,.549.22,1.432,1.432,0,0,1,.394.168,1.776,1.776,0,0,1,.308.922.826.826,0,0,0,.137.378,1.54,1.54,0,0,1,.186.627c.064.465.066.468.27.506.167.031.215.077.26.248.039.149.1.218.2.236.2.036.543.429.457.528-.122.14-.056.287.155.344.145.039.216.035.242-.014s.123-.042.308.017a.663.663,0,0,1,.411.318,1.511,1.511,0,0,0,.823.568c.065,0,.1.05.11.159a1.332,1.332,0,0,0,.388.564c.311.329.417.4.614.42a.448.448,0,0,1,.4.264c.12.18.2.239.316.231.085-.006.154-.036.151-.066-.006-.084.326-.154.418-.088a.524.524,0,0,0,.323,0c.236-.057.248-.051.509.258a3.792,3.792,0,0,1,.354.48c.071.136.133.164.359.164h.273v.272l0,.272.238-.058c.131-.032.338-.087.462-.122.217-.062.229-.056.368.186a.487.487,0,0,1,.074.5c-.079.29-.065.307.305.384.15.031.275.087.277.123.006.083.279.283.381.278.042,0,.1-.062.135-.134.142-.316.344-.089.556.623.11.371.188.523.312.609a1.013,1.013,0,0,1,.3.546,1.825,1.825,0,0,0,.259.549c.183.179.129.464-.092.479-.321.022-.405.162-.354.589a.915.915,0,0,1-.062.593c-.138.269-.178.853-.062.89a1.925,1.925,0,0,0,.407.009c.286-.016.342-.041.469-.216a1.068,1.068,0,0,0,.173-.39.928.928,0,0,1,.26-.42c.225-.221.231-.241.205-.63-.036-.544.048-.656.606-.807.4-.109.432-.128.407-.27-.015-.084-.059-.357-.1-.607-.065-.417-.086-.461-.253-.533a.472.472,0,0,1-.228-.194c-.033-.084-.13-.121-.353-.135a.763.763,0,0,1-.425-.133c-.114-.109-.113-.124.006-.35a1.631,1.631,0,0,0,.141-.565c.013-.257.047-.344.152-.4a.353.353,0,0,0,.159-.263c.035-.279.125-.546.185-.551a.538.538,0,0,1,.429.253c.069.21.369.321.787.292.34-.024.384-.011.525.154a2.8,2.8,0,0,1,.29.444c.171.333.49.544.659.438.09-.056.122-.171.133-.484a.967.967,0,0,0-.438-1.027,2.543,2.543,0,0,1-.441-.474c-.072-.135-.131-.164-.3-.152a1.344,1.344,0,0,1-.858-.25,5.633,5.633,0,0,0-1.716-.737,2.166,2.166,0,0,1-.7-.276.477.477,0,0,0-.3-.127c-.373.026-.433-.341-.1-.587.314-.23.339-.4.081-.539a.366.366,0,0,0-.43-.009.825.825,0,0,1-.5.059.966.966,0,0,0-.5.049c-.211.08-.257.076-.417-.033a.642.642,0,0,0-.255-.117,1.082,1.082,0,0,1-.347-.2,1.241,1.241,0,0,0-.33-.2,3.215,3.215,0,0,1-.542-.4,2.257,2.257,0,0,1-.9-1.517,1.472,1.472,0,0,0-.233-.614,1.528,1.528,0,0,1-.222-.425c-.073-.257-.171-.329-.6-.439a1.382,1.382,0,0,1-.565-.309.643.643,0,0,0-.4-.215c-.142.01-.266-.092-.721-.6a3.165,3.165,0,0,1-.335-1.1c-.018-.225.167-.461.26-.332s.16.036.143-.2c-.012-.167-.051-.263-.115-.282a.186.186,0,0,1-.106-.16.5.5,0,0,0-.155-.265c-.133-.122-.141-.159-.089-.389.071-.314.108-.342.324-.249.146.063.181.06.241-.023a.2.2,0,0,1,.171-.081,1.348,1.348,0,0,0,.675-.377.314.314,0,0,0-.1-.144c-.127-.11-.007-.179.176-.1a.862.862,0,0,0,.394,0c.24-.05.283-.04.383.092.144.19.267.181.292-.02a.271.271,0,0,0-.105-.255.359.359,0,0,1-.132-.211.5.5,0,0,0-.185-.255c-.2-.159-.191-.342.014-.356.142-.01.155-.085.045-.26a.262.262,0,0,0-.225-.106c-.247.017-.242-.084.01-.219.167-.09.242-.176.256-.294a.475.475,0,0,0-.006-.2,5.046,5.046,0,0,0-.828-.023c-.8.013-.8.012-1.117-.193a1.061,1.061,0,0,1-.362-.351c-.035-.107-.092-.142-.219-.134l-.172.011.2-.145a.421.421,0,0,0,.187-.264c-.006-.08-.094-.117-.208-.117a.674.674,0,0,0-.481.2" transform="translate(-112.081 -91.835)" fill="none"/>
    </clipPath>
    <linearGradient id="linear-gradient-20" x1="-0.634" y1="1.537" x2="-0.628" y2="1.537" xlink:href="#linear-gradient"/>
    <clipPath id="clip-path-13">
      <path id="Tracciato_754" data-name="Tracciato 754" d="M128.625,112.713a.43.43,0,0,1-.263.076c-.054-.017-.12.025-.16.1-.078.146-.3.185-.548.093-.138-.052-.176-.039-.309.1-.317.339-.389.365-1.162.414-.548.035-.735.027-.762-.032-.02-.043-.118-.072-.218-.065-.155.011-.189-.014-.231-.167-.037-.135-.072-.168-.142-.134a1.8,1.8,0,0,1-.311.092c-.174.037-.227.082-.265.222-.064.237-.25.246-.363.018-.1-.2-.139-.211-.228-.044a.241.241,0,0,1-.144.13c-.043,0-.131.141-.195.308a.582.582,0,0,0,.217.808c.212.175.244.183.4.107.124-.062.184-.067.238-.019a.293.293,0,0,0,.185.055.73.73,0,0,1,.546.38c.078.156.115.173.34.157a.357.357,0,0,1,.4.175c.137.174.186.193.487.193a1.053,1.053,0,0,1,.955.436c.137.225.137.225.567.225a.9.9,0,0,1,.542.1c.206.18.266.112.239-.27-.023-.331-.014-.36.121-.4a.2.2,0,0,0,0-.384c-.127-.057-.182-.227-.076-.234s.055-.159-.078-.264a.358.358,0,0,1-.035-.525.333.333,0,0,0,.061-.312c-.039-.119-.014-.184.125-.325a.663.663,0,0,0,.17-.227.668.668,0,0,1,.1-.218,1.14,1.14,0,0,0,.122-.287,2.181,2.181,0,0,1,.057-.223c.029-.087-.035-.135-.134-.135a.5.5,0,0,0-.249.078m-12.059-6.337a1.142,1.142,0,0,0-.421.4c-.1.241-.075.217-.356.3a.755.755,0,0,1-.453.014c-.235-.067-.274-.195-.109-.358s.132-.244-.059-.209c-.214.04-.358.355-.206.451.088.055.087.069,0,.134-.072.052-.095.15-.081.344.017.239.039.278.186.327.182.061.216.144.327.782.047.272.047.414,0,.481-.081.113-.021.273.1.265.164-.011.167.173.007.43-.148.237-.158.3-.126.756.02.292.01.5-.025.5-.1.007-.038.482.072.515s.212-.1.153-.183c-.018-.025,0-.048.03-.05s.069.075.075.171c.014.2.108.276.216.173.055-.053.1-.049.155.014.1.108.1.108.334-.057a.319.319,0,0,0,.176-.36c-.028-.4.193-.494.493-.221.222.2.344.206.33.013a.2.2,0,0,1,.081-.185.128.128,0,0,0,.063-.146.237.237,0,0,1,.068-.2c.078-.078.084-.143.033-.337a1.434,1.434,0,0,1,.035-.7c.092-.431.092-.474-.005-.594-.138-.171-.119-.32.078-.61a.476.476,0,0,0,.108-.487c-.123-.552-.134-.573-.285-.562-.079.006-.146-.017-.148-.05s.049-.063.115-.068c.087-.006.116-.048.109-.158s-.042-.147-.129-.141a.107.107,0,0,1-.125-.081.905.905,0,0,0-.238-.313l-.232-.224Zm4.545-14.34c-.1.127-.157.151-.225.1s-.138-.039-.276.029-.206.076-.264.026a.637.637,0,0,0-.342-.048c-.247.017-.27.034-.322.238-.086.336-.2.413-.384.262a.553.553,0,0,0-.416-.106l-.263.019.022.31c.025.361-.033.426-.3.336-.178-.059-.208-.05-.347.109l-.152.174.182.236c.164.214.186.313.068.321-.023,0-.081-.069-.129-.157-.077-.142-.112-.154-.318-.107a3.613,3.613,0,0,0-.37.1c-.126.047-.14.031-.154-.175s-.031-.226-.2-.214-.187.045-.24.3a.747.747,0,0,1-.231.43c-.149.123-.168.18-.149.455.015.216,0,.309-.055.3-.133-.034-.2-.352-.121-.544.057-.133.057-.193,0-.243-.112-.1-.183-.078-.341.092l-.14.151-.131-.148a.409.409,0,0,1-.108-.357c.018-.16-.006-.229-.1-.291-.175-.114-.283-.094-.273.05a.244.244,0,0,1-.11.2.612.612,0,0,0-.176.33c-.073.324-.346.548-.566.465a.644.644,0,0,0-.426.036,2.916,2.916,0,0,1-.584.112.545.545,0,0,0-.5.249l-.193.228.282.33c.272.318.4.706.243.717a.582.582,0,0,0-.215.176c-.131.15-.183.168-.429.149l-.28-.022.016.223c.011.16.048.23.132.251a.543.543,0,0,1,.237.24c.066.116.152.209.192.207.106-.007.052.435-.065.533-.086.072-.07.13.149.566l.245.486.439.018c.529.021.6.067.463.306a1.4,1.4,0,0,0-.133.391l-.032.211.373-.026a1.306,1.306,0,0,0,.994-.5c.064-.1.244-.331.4-.524.276-.338.295-.35.545-.327a2.232,2.232,0,0,1,.655.233l.667.353a3.308,3.308,0,0,0,.549.22,1.432,1.432,0,0,1,.394.168,1.776,1.776,0,0,1,.308.922.826.826,0,0,0,.137.378,1.54,1.54,0,0,1,.186.627c.064.465.066.468.27.506.167.031.215.077.26.248.039.149.1.218.2.236.2.036.543.429.457.528-.122.14-.056.287.155.344.145.039.216.035.242-.014s.123-.042.308.017a.663.663,0,0,1,.411.318,1.511,1.511,0,0,0,.823.568c.065,0,.1.05.11.159a1.332,1.332,0,0,0,.388.564c.311.329.417.4.614.42a.448.448,0,0,1,.4.264c.12.18.2.239.316.231.085-.006.154-.036.151-.066-.006-.084.326-.154.418-.088a.524.524,0,0,0,.323,0c.236-.057.248-.051.51.258a3.792,3.792,0,0,1,.354.48c.071.136.133.164.359.164h.273v.272l0,.272.238-.058c.131-.032.338-.087.462-.122.217-.062.229-.056.368.186a.487.487,0,0,1,.074.5c-.079.29-.065.307.305.384.15.031.275.087.277.123.006.083.279.283.381.278.042,0,.1-.062.135-.134.142-.316.344-.089.556.623.11.371.188.523.312.609a1.013,1.013,0,0,1,.3.546,1.825,1.825,0,0,0,.259.549c.183.179.129.464-.092.479-.321.022-.405.162-.354.589a.915.915,0,0,1-.062.593c-.138.269-.178.853-.062.89a1.925,1.925,0,0,0,.407.009c.286-.016.342-.041.469-.216a1.068,1.068,0,0,0,.173-.39.928.928,0,0,1,.26-.42c.225-.221.231-.241.205-.63-.036-.544.048-.656.606-.807.4-.109.432-.128.407-.27-.015-.084-.059-.357-.1-.607-.065-.417-.086-.461-.253-.533a.472.472,0,0,1-.228-.194c-.033-.084-.13-.121-.353-.135a.763.763,0,0,1-.425-.133c-.114-.109-.113-.124.006-.35a1.631,1.631,0,0,0,.141-.565c.013-.257.047-.344.152-.4a.353.353,0,0,0,.159-.263c.035-.279.125-.546.185-.551a.538.538,0,0,1,.429.253c.069.21.369.321.787.292.34-.024.384-.011.525.154a2.8,2.8,0,0,1,.29.444c.171.333.49.544.659.438.09-.056.122-.171.133-.484a.967.967,0,0,0-.438-1.027,2.543,2.543,0,0,1-.441-.474c-.072-.135-.131-.164-.3-.152a1.345,1.345,0,0,1-.858-.25,5.633,5.633,0,0,0-1.716-.737,2.166,2.166,0,0,1-.7-.276.477.477,0,0,0-.3-.127c-.373.026-.433-.341-.1-.587.314-.23.339-.4.081-.539a.366.366,0,0,0-.43-.009.825.825,0,0,1-.5.059.966.966,0,0,0-.5.049c-.211.08-.257.076-.417-.033a.642.642,0,0,0-.255-.117,1.082,1.082,0,0,1-.347-.2,1.241,1.241,0,0,0-.33-.2,3.215,3.215,0,0,1-.542-.4,2.257,2.257,0,0,1-.9-1.517,1.472,1.472,0,0,0-.233-.614,1.528,1.528,0,0,1-.222-.425c-.073-.257-.171-.329-.6-.439a1.382,1.382,0,0,1-.565-.309.643.643,0,0,0-.4-.215c-.142.01-.266-.092-.721-.6a3.165,3.165,0,0,1-.335-1.1c-.018-.225.167-.461.26-.332s.16.036.143-.2c-.012-.167-.051-.263-.115-.282a.186.186,0,0,1-.106-.16.5.5,0,0,0-.155-.265c-.133-.122-.141-.159-.089-.389.071-.314.108-.342.324-.249.146.063.181.06.241-.023a.2.2,0,0,1,.171-.081,1.349,1.349,0,0,0,.675-.377.314.314,0,0,0-.1-.144c-.127-.11-.007-.179.176-.1a.862.862,0,0,0,.394,0c.24-.05.283-.04.383.092.144.19.267.181.292-.02a.271.271,0,0,0-.105-.255.359.359,0,0,1-.132-.211.5.5,0,0,0-.185-.255c-.2-.159-.191-.342.014-.356.142-.01.155-.085.045-.26a.262.262,0,0,0-.225-.106c-.247.017-.242-.084.01-.219.167-.09.242-.176.256-.294a.475.475,0,0,0-.006-.2,5.048,5.048,0,0,0-.828-.023c-.8.013-.8.012-1.117-.193a1.061,1.061,0,0,1-.362-.351c-.035-.107-.092-.142-.219-.134l-.172.011.2-.145a.421.421,0,0,0,.187-.264c-.006-.08-.094-.117-.208-.117a.673.673,0,0,0-.481.2" transform="translate(-112.081 -91.834)" fill="none"/>
    </clipPath>
    <clipPath id="clip-path-14">
      <rect id="Rettangolo_410" data-name="Rettangolo 410" width="173.113" height="49.487" fill="none"/>
    </clipPath>
    <clipPath id="clip-path-15">
      <path id="Tracciato_765" data-name="Tracciato 765" d="M.644,289.135a1.108,1.108,0,1,0,.7-.246,1.108,1.108,0,0,0-.7.246" transform="translate(-0.232 -288.889)" fill="none"/>
    </clipPath>
    <linearGradient id="linear-gradient-22" x1="0.167" y1="4.167" x2="0.204" y2="4.167" xlink:href="#linear-gradient"/>
    <clipPath id="clip-path-16">
      <path id="Tracciato_766" data-name="Tracciato 766" d="M329.185,290.091a1.108,1.108,0,1,0,1.108-1.108,1.108,1.108,0,0,0-1.108,1.108" transform="translate(-329.185 -288.983)" fill="none"/>
    </clipPath>
    <linearGradient id="linear-gradient-23" x1="-18.443" y1="6.147" x2="-18.387" y2="6.147" xlink:href="#linear-gradient"/>
    <clipPath id="clip-path-17">
      <path id="Tracciato_767" data-name="Tracciato 767" d="M166.3,0a1.108,1.108,0,1,0,1.108,1.108A1.108,1.108,0,0,0,166.3,0Z" transform="translate(-165.196 0)" fill="none"/>
    </clipPath>
    <linearGradient id="linear-gradient-24" x1="-9.255" y1="22.338" x2="-9.199" y2="22.338" xlink:href="#linear-gradient"/>
    <clipPath id="clip-path-18">
      <path id="Tracciato_768" data-name="Tracciato 768" d="M169.037,351.137a.553.553,0,1,0,.5-.319.554.554,0,0,0-.5.319" transform="translate(-168.985 -350.818)" fill="none"/>
    </clipPath>
    <linearGradient id="linear-gradient-25" x1="-16.55" y1="5.011" x2="-16.452" y2="5.011" xlink:href="#linear-gradient"/>
    <clipPath id="clip-path-19">
      <path id="Tracciato_769" data-name="Tracciato 769" d="M168.961,316.391a.553.553,0,1,0,.5-.319.554.554,0,0,0-.5.319" transform="translate(-168.909 -316.072)" fill="none"/>
    </clipPath>
    <linearGradient id="linear-gradient-26" x1="-16.542" y1="8.651" x2="-16.444" y2="8.651" xlink:href="#linear-gradient"/>
  </defs>
  <g id="Logo_Cyber" transform="translate(-304 -1010)">
    <rect id="Rectangle" width="174" height="50" transform="translate(304 1010)" fill="none"/>
    <g id="Raggruppa_567" data-name="Raggruppa 567" transform="translate(304 1010)">
      <path id="Tracciato_734" data-name="Tracciato 734" d="M8.552,103.518l10.3,5.936-.124.215-10.3-5.936" transform="translate(-7.382 -90.67)" fill="url(#linear-gradient)"/>
      <path id="Tracciato_735" data-name="Tracciato 735" d="M30.281,8.555,9.991,44.411l-.216-.122L30.065,8.432" transform="translate(-8.562 -7.386)" fill="url(#linear-gradient-2)"/>
      <path id="Tracciato_736" data-name="Tracciato 736" d="M173.466,8.431,193.82,44.3l-.216.123L173.25,8.554" transform="translate(-151.747 -7.385)" fill="url(#linear-gradient-3)"/>
      <path id="Tracciato_737" data-name="Tracciato 737" d="M51.3,297.062H10.645v-.248H51.3" transform="translate(-9.324 -259.974)" fill="url(#linear-gradient-4)"/>
      <path id="Tracciato_738" data-name="Tracciato 738" d="M8.175,104.381l.077,23.639H8l-.077-23.639" transform="translate(-6.943 -91.426)" fill="url(#linear-gradient-5)"/>
      <path id="Tracciato_739" data-name="Tracciato 739" d="M174.525,8.907l20.16,11.631-.124.215L174.4,9.122" transform="translate(-152.755 -7.801)" fill="url(#linear-gradient-6)"/>
      <path id="Tracciato_740" data-name="Tracciato 740" d="M264.581,105.507l-9.89,5.67-.123-.215,9.89-5.67" transform="translate(-222.971 -92.223)" fill="url(#linear-gradient-7)"/>
      <path id="Tracciato_741" data-name="Tracciato 741" d="M174.6,308.441l20.234-11.4.122.216-20.234,11.4" transform="translate(-152.926 -260.17)" fill="url(#linear-gradient-8)"/>
      <g id="Raggruppa_528" data-name="Raggruppa 528" transform="translate(40.857 11.841)">
        <g id="Raggruppa_527" data-name="Raggruppa 527" clip-path="url(#clip-path)">
          <rect id="Rettangolo_395" data-name="Rettangolo 395" width="2.215" height="2.215" fill="url(#linear-gradient-9)"/>
        </g>
      </g>
      <g id="Raggruppa_530" data-name="Raggruppa 530" transform="translate(20.504 47.271)">
        <g id="Raggruppa_529" data-name="Raggruppa 529" clip-path="url(#clip-path-2)">
          <rect id="Rettangolo_396" data-name="Rettangolo 396" width="2.215" height="2.215" fill="url(#linear-gradient-10)"/>
        </g>
      </g>
      <g id="Raggruppa_532" data-name="Raggruppa 532" transform="translate(0 11.848)">
        <g id="Raggruppa_531" data-name="Raggruppa 531" clip-path="url(#clip-path-3)">
          <rect id="Rettangolo_397" data-name="Rettangolo 397" width="3.176" height="3.092" transform="translate(-0.923 0.293) rotate(-20.639)" fill="url(#linear-gradient-11)"/>
        </g>
      </g>
      <g id="Raggruppa_534" data-name="Raggruppa 534" transform="translate(5.113 9.763)">
        <g id="Raggruppa_533" data-name="Raggruppa 533" clip-path="url(#clip-path-4)">
          <rect id="Rettangolo_398" data-name="Rettangolo 398" width="1.108" height="1.108" transform="translate(0 0)" fill="url(#linear-gradient-12)"/>
        </g>
      </g>
      <g id="Raggruppa_536" data-name="Raggruppa 536" transform="translate(8.968 7.54)">
        <g id="Raggruppa_535" data-name="Raggruppa 535" clip-path="url(#clip-path-5)">
          <rect id="Rettangolo_399" data-name="Rettangolo 399" width="1.108" height="1.108" transform="translate(0 0)" fill="url(#linear-gradient-13)"/>
        </g>
      </g>
      <g id="Raggruppa_538" data-name="Raggruppa 538" transform="translate(12.848 5.325)">
        <g id="Raggruppa_537" data-name="Raggruppa 537" clip-path="url(#clip-path-6)">
          <rect id="Rettangolo_400" data-name="Rettangolo 400" width="1.108" height="1.108" transform="translate(0 0)" fill="url(#linear-gradient-14)"/>
        </g>
      </g>
      <g id="Raggruppa_540" data-name="Raggruppa 540" transform="translate(16.651 3.102)">
        <g id="Raggruppa_539" data-name="Raggruppa 539" clip-path="url(#clip-path-7)">
          <rect id="Rettangolo_401" data-name="Rettangolo 401" width="1.108" height="1.108" transform="translate(0 0)" fill="url(#linear-gradient-15)"/>
        </g>
      </g>
      <g id="Raggruppa_542" data-name="Raggruppa 542" transform="translate(41.544 30.672)">
        <g id="Raggruppa_541" data-name="Raggruppa 541" clip-path="url(#clip-path-8)">
          <rect id="Rettangolo_402" data-name="Rettangolo 402" width="1.263" height="1.185" transform="translate(-0.077)" fill="url(#linear-gradient-16)"/>
        </g>
      </g>
      <g id="Raggruppa_544" data-name="Raggruppa 544" transform="translate(41.544 26.138)">
        <g id="Raggruppa_543" data-name="Raggruppa 543" clip-path="url(#clip-path-9)">
          <rect id="Rettangolo_403" data-name="Rettangolo 403" width="1.263" height="1.185" transform="translate(-0.077 0)" fill="url(#linear-gradient-17)"/>
        </g>
      </g>
      <g id="Raggruppa_546" data-name="Raggruppa 546" transform="translate(41.544 21.624)">
        <g id="Raggruppa_545" data-name="Raggruppa 545" clip-path="url(#clip-path-10)">
          <rect id="Rettangolo_404" data-name="Rettangolo 404" width="1.263" height="1.185" transform="translate(-0.077)" fill="url(#linear-gradient-18)"/>
        </g>
      </g>
      <g id="Raggruppa_548" data-name="Raggruppa 548" transform="translate(41.544 17.346)">
        <g id="Raggruppa_547" data-name="Raggruppa 547" clip-path="url(#clip-path-11)">
          <rect id="Rettangolo_405" data-name="Rettangolo 405" width="1.263" height="1.185" transform="translate(-0.077 0)" fill="url(#linear-gradient-19)"/>
        </g>
      </g>
      <g id="Raggruppa_550" data-name="Raggruppa 550" transform="translate(13.911 11.398)">
        <g id="Raggruppa_549" data-name="Raggruppa 549" clip-path="url(#clip-path-12)">
          <rect id="Rettangolo_406" data-name="Rettangolo 406" width="21.951" height="24.789" transform="translate(0 0)" fill="url(#linear-gradient-20)"/>
        </g>
      </g>
      <g id="Raggruppa_552" data-name="Raggruppa 552" transform="translate(13.911 11.398)">
        <g id="Raggruppa_551" data-name="Raggruppa 551" clip-path="url(#clip-path-13)">
          <rect id="Rettangolo_407" data-name="Rettangolo 407" width="21.951" height="24.789" transform="translate(0 0)" fill="url(#linear-gradient-20)"/>
        </g>
      </g>
      <g id="Raggruppa_554" data-name="Raggruppa 554">
        <g id="Raggruppa_553" data-name="Raggruppa 553" clip-path="url(#clip-path-14)">
          <path id="Tracciato_755" data-name="Tracciato 755" d="M83.306,332.961l.4,2.925h1.825v-2.412c0-.248.124-.459.376-.459s.367.2.367.45v2.421h2.229v-2.815a2.124,2.124,0,0,0-.384-1.331,1.5,1.5,0,0,0-1.194-.53,1.557,1.557,0,0,0-.9.268,2.8,2.8,0,0,0-.312.275,2.554,2.554,0,0,1-.3.291h-.031l.086-.733H83.306Z" transform="translate(-72.966 -290.101)" fill="#1b4778" fill-rule="evenodd"/>
          <path id="Tracciato_756" data-name="Tracciato 756" d="M83.306,332.961l.4,2.925h1.825v-2.412c0-.248.124-.459.376-.459s.367.2.367.45v2.421h2.229v-2.815a2.124,2.124,0,0,0-.384-1.331,1.5,1.5,0,0,0-1.194-.53,1.557,1.557,0,0,0-.9.268,2.8,2.8,0,0,0-.312.275,2.554,2.554,0,0,1-.3.291h-.031l.086-.733H83.306Z" transform="translate(-72.966 -290.101)" fill="none" stroke="#fff" stroke-miterlimit="10" stroke-width="0.5"/>
          <path id="Tracciato_757" data-name="Tracciato 757" d="M31.071,334.165c.007.012.031.3.039.346.018.106.05.209.069.307a1.961,1.961,0,0,0,.233.519,2.281,2.281,0,0,0,.344.417,2.224,2.224,0,0,0,.439.313,2.655,2.655,0,0,0,1.205.308,3.883,3.883,0,0,0,.7-.045,3.156,3.156,0,0,0,.6-.157l.093-1.852c-.269.141-.414.339-.845.339a.628.628,0,0,1-.59-.382.67.67,0,0,1,.1-.716.754.754,0,0,1,.723-.2,1.256,1.256,0,0,1,.34.146c.1.067.182.142.273.2v-.1l-.136-.978.136-.04v-.679l-.119-.073c-.194-.045-.365-.1-.585-.14a4.958,4.958,0,0,0-.672-.053,2.336,2.336,0,0,0-1.648.663,2.139,2.139,0,0,0-.475.68,3.375,3.375,0,0,0-.145.433c-.015.059-.066.5-.07.508Z" transform="translate(-27.215 -290.489)" fill="#1b4778" fill-rule="evenodd"/>
          <path id="Tracciato_758" data-name="Tracciato 758" d="M31.071,334.165c.007.012.031.3.039.346.018.106.05.209.069.307a1.961,1.961,0,0,0,.233.519,2.281,2.281,0,0,0,.344.417,2.224,2.224,0,0,0,.439.313,2.655,2.655,0,0,0,1.205.308,3.883,3.883,0,0,0,.7-.045,3.156,3.156,0,0,0,.6-.157l.093-1.852c-.269.141-.414.339-.845.339a.628.628,0,0,1-.59-.382.67.67,0,0,1,.1-.716.754.754,0,0,1,.723-.2,1.256,1.256,0,0,1,.34.146c.1.067.182.142.273.2v-.1l-.136-.978.136-.04v-.679l-.119-.073c-.194-.045-.365-.1-.585-.14a4.958,4.958,0,0,0-.672-.053,2.336,2.336,0,0,0-1.648.663,2.139,2.139,0,0,0-.475.68,3.375,3.375,0,0,0-.145.433c-.015.059-.066.5-.07.508Z" transform="translate(-27.215 -290.489)" fill="none" stroke="#fff" stroke-miterlimit="10" stroke-width="0.5"/>
          <path id="Tracciato_759" data-name="Tracciato 759" d="M61.537,334.746l-.136.041.136.977.541,3.842h.037l2.2-.679-.076-.5-.4-2.925-.2-1.384,0-.008Z" transform="translate(-53.779 -292.638)" fill="#e63343" fill-rule="evenodd"/>
          <path id="Tracciato_760" data-name="Tracciato 760" d="M61.537,334.746l-.136.041.136.977.541,3.842h.037l2.2-.679-.076-.5-.4-2.925-.2-1.384,0-.008Z" transform="translate(-53.779 -292.638)" fill="none" stroke="#fff" stroke-miterlimit="10" stroke-width="0.5"/>
          <rect id="Rettangolo_408" data-name="Rettangolo 408" width="2.219" height="4.576" transform="translate(15.873 41.209)" fill="#1b4778"/>
          <rect id="Rettangolo_409" data-name="Rettangolo 409" width="2.219" height="4.576" transform="translate(15.873 41.209)" fill="none" stroke="#fff" stroke-miterlimit="10" stroke-width="0.5"/>
          <path id="Tracciato_761" data-name="Tracciato 761" d="M59.08,317.461l.119.073a1.03,1.03,0,0,0,.44.1H59.7a2,2,0,0,0,.935-.312c.034-.021.127-.11.167-.144a1.489,1.489,0,0,0,.142-.151.664.664,0,0,0,.121-.19c.021-.047.078-.186.1-.22l.045-.358,0-.01-.041-.295-.01,0h.019a1.037,1.037,0,0,0-.171-.38.851.851,0,0,0-.312-.256,1.261,1.261,0,0,0-.948,0c-.066.027-.138.058-.2.082-.08.029-.11.069-.184.1a1.351,1.351,0,0,0-.166.118.89.89,0,0,1-.069.068c-.065.051-.024.033-.058.07a1.281,1.281,0,0,0-.347.8c0,.112.017.207.024.29s.056.172.064.235c.018.138.19.278.26.374" transform="translate(-51.442 -276.104)" fill="#e63343" fill-rule="evenodd"/>
          <path id="Tracciato_762" data-name="Tracciato 762" d="M59.08,317.461l.119.073a1.03,1.03,0,0,0,.44.1H59.7a2,2,0,0,0,.935-.312c.034-.021.127-.11.167-.144a1.489,1.489,0,0,0,.142-.151.664.664,0,0,0,.121-.19c.021-.047.078-.186.1-.22l.045-.358,0-.01-.041-.295-.01,0h.019a1.037,1.037,0,0,0-.171-.38.851.851,0,0,0-.312-.256,1.261,1.261,0,0,0-.948,0c-.066.027-.138.058-.2.082-.08.029-.11.069-.184.1a1.351,1.351,0,0,0-.166.118.89.89,0,0,1-.069.068c-.065.051-.024.033-.058.07a1.281,1.281,0,0,0-.347.8c0,.112.017.207.024.29s.056.172.064.235c.018.138.19.278.26.374" transform="translate(-51.442 -276.104)" fill="none" stroke="#fff" stroke-miterlimit="10" stroke-width="0.5"/>
          <path id="Tracciato_763" data-name="Tracciato 763" d="M128.344,314.284a1.478,1.478,0,0,0,.84-.251.982.982,0,0,0,.37-.73v-.073a.854.854,0,0,0-.082-.422c.046-.015-.123-.238-.154-.268a1.459,1.459,0,0,0-.246-.213,1.338,1.338,0,0,0-.737-.18,1.241,1.241,0,0,0-.874.291.989.989,0,0,0-.348.8,1.085,1.085,0,0,0,1.23,1.045" transform="translate(-111.336 -273.404)" fill="#1b4778" fill-rule="evenodd"/>
          <path id="Tracciato_764" data-name="Tracciato 764" d="M128.344,314.284a1.478,1.478,0,0,0,.84-.251.982.982,0,0,0,.37-.73v-.073a.854.854,0,0,0-.082-.422c.046-.015-.123-.238-.154-.268a1.459,1.459,0,0,0-.246-.213,1.338,1.338,0,0,0-.737-.18,1.241,1.241,0,0,0-.874.291.989.989,0,0,0-.348.8,1.085,1.085,0,0,0,1.23,1.045" transform="translate(-111.336 -273.404)" fill="none" stroke="#fff" stroke-miterlimit="10" stroke-width="0.5"/>
        </g>
      </g>
      <g id="Raggruppa_556" data-name="Raggruppa 556" transform="translate(0.029 35.856)">
        <g id="Raggruppa_555" data-name="Raggruppa 555" clip-path="url(#clip-path-15)">
          <rect id="Rettangolo_411" data-name="Rettangolo 411" width="3.418" height="3.397" transform="matrix(0.778, -0.628, 0.628, 0.778, -1.289, 0.929)" fill="url(#linear-gradient-22)"/>
        </g>
      </g>
      <g id="Raggruppa_558" data-name="Raggruppa 558" transform="translate(40.857 35.868)">
        <g id="Raggruppa_557" data-name="Raggruppa 557" clip-path="url(#clip-path-16)">
          <rect id="Rettangolo_412" data-name="Rettangolo 412" width="2.215" height="2.215" fill="url(#linear-gradient-23)"/>
        </g>
      </g>
      <g id="Raggruppa_560" data-name="Raggruppa 560" transform="translate(20.504)">
        <g id="Raggruppa_559" data-name="Raggruppa 559" clip-path="url(#clip-path-17)">
          <rect id="Rettangolo_413" data-name="Rettangolo 413" width="2.215" height="2.215" fill="url(#linear-gradient-24)"/>
        </g>
      </g>
      <g id="Raggruppa_562" data-name="Raggruppa 562" transform="translate(20.974 43.542)">
        <g id="Raggruppa_561" data-name="Raggruppa 561" clip-path="url(#clip-path-18)">
          <rect id="Rettangolo_414" data-name="Rettangolo 414" width="1.263" height="1.185" transform="translate(-0.077)" fill="url(#linear-gradient-25)"/>
        </g>
      </g>
      <g id="Raggruppa_564" data-name="Raggruppa 564" transform="translate(20.964 39.23)">
        <g id="Raggruppa_563" data-name="Raggruppa 563" clip-path="url(#clip-path-19)">
          <rect id="Rettangolo_415" data-name="Rettangolo 415" width="1.263" height="1.185" transform="translate(-0.077 0)" fill="url(#linear-gradient-26)"/>
        </g>
      </g>
      <g id="Raggruppa_566" data-name="Raggruppa 566">
        <g id="Raggruppa_565" data-name="Raggruppa 565" clip-path="url(#clip-path-14)">
          <path id="Tracciato_770" data-name="Tracciato 770" d="M431.331,3.932h.074q4.058,0,4.059,4.45h-.875a3.978,3.978,0,0,0-.8-2.783,3.128,3.128,0,0,0-2.383-.847h-.074a3.122,3.122,0,0,0-2.392.847,4.01,4.01,0,0,0-.791,2.783v4.152a4.015,4.015,0,0,0,.8,2.793,3.108,3.108,0,0,0,2.383.856h.074a3.108,3.108,0,0,0,2.383-.856,4.014,4.014,0,0,0,.8-2.793h.875q0,4.468-4.059,4.468h-.074q-4.059,0-4.059-4.468V8.382q0-4.45,4.059-4.45" transform="translate(-374.24 -3.444)" fill="#1b4778"/>
          <path id="Tracciato_771" data-name="Tracciato 771" d="M502.135,5.432l3.407,6.274h.149l3.444-6.274h.912l-3.984,7.2v5.492h-.875V12.637l-3.966-7.2Z" transform="translate(-439.013 -4.758)" fill="#1b4778"/>
          <path id="Tracciato_772" data-name="Tracciato 772" d="M591.06,5.432a3.7,3.7,0,0,1,2.607.828,3,3,0,0,1,.894,2.318V8.82a2.58,2.58,0,0,1-1.75,2.7v.149a2.643,2.643,0,0,1,2.216,2.886v.168a3.413,3.413,0,0,1-.884,2.523,3.493,3.493,0,0,1-2.579.884h-4.394V5.432Zm-3.016.819v5.008h3.016q2.625,0,2.625-2.439v-.2q0-2.364-2.625-2.364Zm0,5.827V17.31h3.481a2.726,2.726,0,0,0,1.983-.633,2.668,2.668,0,0,0,.642-1.973v-.13q0-2.495-2.625-2.495Z" transform="translate(-514.292 -4.758)" fill="#1b4778"/>
          <path id="Tracciato_773" data-name="Tracciato 773" d="M670.57,5.432h7.3v.819h-6.423v5.1h4.822v.819h-4.822V17.31h6.423v.819h-7.3Z" transform="translate(-587.341 -4.758)" fill="#1b4778"/>
          <path id="Tracciato_774" data-name="Tracciato 774" d="M746.168,5.432h4.189q3.556,0,3.556,3.686v.037q0,3.63-3.463,3.686v.111l3.221,5.176h-1.024l-3.3-5.287h-2.309v5.287h-.875Zm.875,6.59h3.314a2.853,2.853,0,0,0,2.02-.623,3.028,3.028,0,0,0,.661-2.244V9.118a3.032,3.032,0,0,0-.661-2.234,2.827,2.827,0,0,0-2.02-.633h-3.314Z" transform="translate(-653.556 -4.758)" fill="#1b4778"/>
          <path id="Tracciato_775" data-name="Tracciato 775" d="M818.917,12.681h.875a3.153,3.153,0,0,0,.856,2.5,3.889,3.889,0,0,0,2.588.736h.093a3.808,3.808,0,0,0,2.374-.642,2.224,2.224,0,0,0,.828-1.871,2.605,2.605,0,0,0-.093-.717,3.042,3.042,0,0,0-.214-.559,1.518,1.518,0,0,0-.372-.447,4.92,4.92,0,0,0-.447-.345,3.937,3.937,0,0,0-.549-.289,5.814,5.814,0,0,0-.558-.223q-.205-.065-.615-.214l-.6-.186-.512-.168-.624-.2q-.223-.074-.624-.251a3.929,3.929,0,0,1-.642-.344,5.479,5.479,0,0,1-.549-.447,2.546,2.546,0,0,1-.484-.577,3.027,3.027,0,0,1-.3-.726,3.334,3.334,0,0,1-.121-.912,2.883,2.883,0,0,1,1-2.318,4.077,4.077,0,0,1,2.728-.847h.093A4.3,4.3,0,0,1,826,4.61a3.907,3.907,0,0,1,1.108,3.081h-.875q0-3.239-3.183-3.239h-.093q-2.849,0-2.849,2.346a2.352,2.352,0,0,0,.093.67,2.775,2.775,0,0,0,.214.54,1.465,1.465,0,0,0,.372.428q.251.2.438.335a2.97,2.97,0,0,0,.54.279q.354.149.549.214l.6.2q.4.131.549.186.13.038.521.158t.633.2q.242.084.642.261a3.848,3.848,0,0,1,.652.354,6.827,6.827,0,0,1,.568.456,2.294,2.294,0,0,1,.493.6,3.7,3.7,0,0,1,.307.763,3.453,3.453,0,0,1,.13.968,2.955,2.955,0,0,1-1.117,2.439,4.6,4.6,0,0,1-2.96.894h-.093q-4.319,0-4.319-4.059" transform="translate(-717.276 -3.182)" fill="#1b4778"/>
          <path id="Tracciato_776" data-name="Tracciato 776" d="M905.765,5.432h7.3v.819h-6.423v5.1h4.822v.819h-4.822V17.31h6.423v.819h-7.3Z" transform="translate(-793.345 -4.758)" fill="#1b4778"/>
          <path id="Tracciato_777" data-name="Tracciato 777" d="M980.026,3.932h.074q4.058,0,4.059,4.45h-.875a3.979,3.979,0,0,0-.8-2.783,3.129,3.129,0,0,0-2.383-.847h-.074a3.122,3.122,0,0,0-2.392.847,4.009,4.009,0,0,0-.791,2.783v4.152a4.014,4.014,0,0,0,.8,2.793,3.107,3.107,0,0,0,2.383.856h.074a3.109,3.109,0,0,0,2.383-.856,4.016,4.016,0,0,0,.8-2.793h.875Q984.159,17,980.1,17h-.074q-4.059,0-4.059-4.468V8.382q0-4.45,4.059-4.45" transform="translate(-854.833 -3.444)" fill="#1b4778"/>
          <path id="Tracciato_778" data-name="Tracciato 778" d="M1062.665,5.432h.875V14a3.864,3.864,0,0,0,.763,2.681,3.034,3.034,0,0,0,2.327.819h.093a3.034,3.034,0,0,0,2.327-.819,3.866,3.866,0,0,0,.763-2.681V5.432h.875V14q0,4.319-3.966,4.319h-.093q-3.966,0-3.965-4.319Z" transform="translate(-930.771 -4.758)" fill="#1b4778"/>
          <path id="Tracciato_779" data-name="Tracciato 779" d="M1151.914,5.432h4.189q3.556,0,3.556,3.686v.037q0,3.63-3.463,3.686v.111l3.221,5.176h-1.024l-3.3-5.287h-2.309v5.287h-.875Zm.875,6.59h3.314a2.854,2.854,0,0,0,2.02-.623,3.029,3.029,0,0,0,.661-2.244V9.118a3.033,3.033,0,0,0-.661-2.234,2.828,2.828,0,0,0-2.02-.633h-3.314Z" transform="translate(-1008.942 -4.758)" fill="#1b4778"/>
          <rect id="Rettangolo_416" data-name="Rettangolo 416" width="0.875" height="12.697" transform="translate(152.932 0.674)" fill="#1b4778"/>
          <path id="Tracciato_780" data-name="Tracciato 780" d="M1252.862,5.432h8.471v.819h-3.8V18.129h-.875V6.251h-3.8Z" transform="translate(-1097.361 -4.758)" fill="#1b4778"/>
          <path id="Tracciato_781" data-name="Tracciato 781" d="M1324.572,5.432l3.407,6.274h.149l3.444-6.274h.912l-3.984,7.2v5.492h-.875V12.637l-3.966-7.2Z" transform="translate(-1159.371 -4.758)" fill="#1b4778"/>
          <path id="Tracciato_782" data-name="Tracciato 782" d="M432.606,142.432l5.362,11.654h.13V142.432h.875v12.7H437.54l-5.362-11.655h-.13v11.655h-.875v-12.7Z" transform="translate(-377.657 -124.754)" fill="#e63343"/>
          <path id="Tracciato_783" data-name="Tracciato 783" d="M511.422,155.129l3.724-12.7h1.4l3.7,12.7H519.3l-1.192-4.189h-4.524l-1.21,4.189Zm6.442-5.008-1.955-6.833h-.13l-1.973,6.833Z" transform="translate(-447.946 -124.754)" fill="#e63343"/>
          <path id="Tracciato_784" data-name="Tracciato 784" d="M577.871,142.432h8.471v.819h-3.8v11.878h-.875V143.251h-3.8Z" transform="translate(-506.148 -124.754)" fill="#e63343"/>
          <rect id="Rettangolo_417" data-name="Rettangolo 417" width="0.875" height="12.697" transform="translate(81.888 17.678)" fill="#e63343"/>
          <path id="Tracciato_785" data-name="Tracciato 785" d="M692.928,140.932H693q4.058,0,4.059,4.45v4.152Q697.061,154,693,154h-.074q-4.059,0-4.059-4.468v-4.152q0-4.45,4.059-4.45m-3.184,8.6a4.041,4.041,0,0,0,.791,2.8,3.121,3.121,0,0,0,2.392.847H693a3.127,3.127,0,0,0,2.383-.847,4.011,4.011,0,0,0,.8-2.8v-4.189a3.91,3.91,0,0,0-.8-2.755,3.148,3.148,0,0,0-2.383-.838h-.074a3.141,3.141,0,0,0-2.392.838,3.939,3.939,0,0,0-.791,2.755Z" transform="translate(-603.369 -123.44)" fill="#e63343"/>
          <path id="Tracciato_786" data-name="Tracciato 786" d="M778.35,142.432l5.362,11.654h.13V142.432h.875v12.7h-1.433l-5.362-11.655h-.13v11.655h-.875v-12.7Z" transform="translate(-680.488 -124.754)" fill="#e63343"/>
          <path id="Tracciato_787" data-name="Tracciato 787" d="M857.166,155.129l3.724-12.7h1.4l3.7,12.7h-.949l-1.192-4.189h-4.524l-1.21,4.189Zm6.442-5.008-1.955-6.833h-.13l-1.973,6.833Z" transform="translate(-750.777 -124.754)" fill="#e63343"/>
          <path id="Tracciato_788" data-name="Tracciato 788" d="M946.539,154.31h5.734v.819h-6.609v-12.7h.875Z" transform="translate(-828.291 -124.754)" fill="#e63343"/>
          <path id="Tracciato_789" data-name="Tracciato 789" d="M432.047,291.31h5.734v.819h-6.609v-12.7h.875Z" transform="translate(-377.657 -244.75)" fill="#1b4778"/>
          <path id="Tracciato_790" data-name="Tracciato 790" d="M491.022,292.129l3.724-12.7h1.4l3.7,12.7H498.9l-1.192-4.189h-4.524l-1.21,4.189Zm6.442-5.008-1.955-6.833h-.13l-1.973,6.833Z" transform="translate(-430.078 -244.75)" fill="#1b4778"/>
          <path id="Tracciato_791" data-name="Tracciato 791" d="M583.41,279.432a3.7,3.7,0,0,1,2.606.828,3,3,0,0,1,.894,2.318v.242a2.58,2.58,0,0,1-1.75,2.7v.149a2.642,2.642,0,0,1,2.216,2.886v.168a3.413,3.413,0,0,1-.884,2.523,3.493,3.493,0,0,1-2.578.884h-4.394v-12.7Zm-3.016.819v5.008h3.016q2.625,0,2.625-2.439v-.2q0-2.364-2.625-2.364Zm0,5.827v5.232h3.482a2.726,2.726,0,0,0,1.983-.633,2.667,2.667,0,0,0,.642-1.973v-.13q0-2.495-2.625-2.495Z" transform="translate(-507.591 -244.75)" fill="#1b4778"/>
          <path id="Tracciato_792" data-name="Tracciato 792" d="M663.078,277.932h.074q4.058,0,4.059,4.45v4.152q0,4.468-4.059,4.468h-.074q-4.059,0-4.059-4.468v-4.152q0-4.45,4.059-4.45m-3.184,8.6a4.041,4.041,0,0,0,.791,2.8,3.121,3.121,0,0,0,2.392.847h.074a3.127,3.127,0,0,0,2.383-.847,4.011,4.011,0,0,0,.8-2.8v-4.189a3.91,3.91,0,0,0-.8-2.755,3.148,3.148,0,0,0-2.383-.838h-.074a3.142,3.142,0,0,0-2.392.838,3.939,3.939,0,0,0-.791,2.755Z" transform="translate(-577.224 -243.436)" fill="#1b4778"/>
          <path id="Tracciato_793" data-name="Tracciato 793" d="M747.066,279.432h4.189q3.556,0,3.556,3.686v.037q0,3.63-3.463,3.686v.112l3.221,5.176h-1.024l-3.3-5.287h-2.309v5.287h-.875Zm.875,6.591h3.314a2.853,2.853,0,0,0,2.02-.624,3.028,3.028,0,0,0,.661-2.244v-.037a3.032,3.032,0,0,0-.661-2.234,2.827,2.827,0,0,0-2.02-.633h-3.314Z" transform="translate(-654.343 -244.75)" fill="#1b4778"/>
          <path id="Tracciato_794" data-name="Tracciato 794" d="M818.765,292.129l3.724-12.7h1.4l3.7,12.7h-.949l-1.192-4.189h-4.524l-1.21,4.189Zm6.442-5.008-1.955-6.833h-.13l-1.973,6.833Z" transform="translate(-717.143 -244.75)" fill="#1b4778"/>
          <path id="Tracciato_795" data-name="Tracciato 795" d="M885.215,279.432h8.471v.819h-3.8v11.878h-.875V280.251h-3.8Z" transform="translate(-775.345 -244.75)" fill="#1b4778"/>
          <path id="Tracciato_796" data-name="Tracciato 796" d="M965.022,277.932h.074q4.058,0,4.059,4.45v4.152q0,4.468-4.059,4.468h-.074q-4.059,0-4.059-4.468v-4.152q0-4.45,4.059-4.45m-3.184,8.6a4.041,4.041,0,0,0,.791,2.8,3.12,3.12,0,0,0,2.392.847h.074a3.127,3.127,0,0,0,2.383-.847,4.011,4.011,0,0,0,.8-2.8v-4.189a3.911,3.911,0,0,0-.8-2.755,3.148,3.148,0,0,0-2.383-.838h-.074a3.141,3.141,0,0,0-2.392.838,3.939,3.939,0,0,0-.791,2.755Z" transform="translate(-841.691 -243.436)" fill="#1b4778"/>
          <path id="Tracciato_797" data-name="Tracciato 797" d="M1049.01,279.432h4.189q3.556,0,3.556,3.686v.037q0,3.63-3.463,3.686v.112l3.221,5.176h-1.024l-3.3-5.287h-2.309v5.287h-.875Zm.875,6.591h3.314a2.853,2.853,0,0,0,2.02-.624,3.028,3.028,0,0,0,.661-2.244v-.037a3.032,3.032,0,0,0-.661-2.234,2.827,2.827,0,0,0-2.02-.633h-3.314Z" transform="translate(-918.81 -244.75)" fill="#1b4778"/>
          <path id="Tracciato_798" data-name="Tracciato 798" d="M1117.272,279.432l3.407,6.274h.149l3.444-6.274h.912l-3.984,7.2v5.492h-.875v-5.492l-3.966-7.2Z" transform="translate(-977.801 -244.75)" fill="#1b4778"/>
        </g>
      </g>
    </g>
  </g>
</svg>
